ISO-10303-21;
HEADER;
FILE_DESCRIPTION (( 'STEP AP214' ),
    '1' );
FILE_NAME ('chassisDCmotor_lid.STEP',
    '2020-04-01T13:16:41',
    ( '' ),
    ( '' ),
    'SwSTEP 2.0',
    'SolidWorks 2018',
    '' );
FILE_SCHEMA (( 'AUTOMOTIVE_DESIGN' ));
ENDSEC;

DATA;
#1 = CARTESIAN_POINT ( 'NONE',  ( 98.99999999999994316, 12.49999999999997691, 0.0000000000000000000 ) ) ;
#2 = CIRCLE ( 'NONE', #858, 3.000000000000002665 ) ;
#3 = DIRECTION ( 'NONE',  ( -0.0000000000000000000, 0.0000000000000000000, 1.000000000000000000 ) ) ;
#4 = CARTESIAN_POINT ( 'NONE',  ( 5.000000000000000000, 85.00000000000000000, 3.000000000000000000 ) ) ;
#5 = DIRECTION ( 'NONE',  ( -0.0000000000000000000, -0.0000000000000000000, -1.000000000000000000 ) ) ;
#6 = DIRECTION ( 'NONE',  ( -1.000000000000000000, 0.0000000000000000000, 0.0000000000000000000 ) ) ;
#7 = AXIS2_PLACEMENT_3D ( 'NONE', #374, #88, #435 ) ;
#8 = EDGE_LOOP ( 'NONE', ( #695, #531, #673, #873 ) ) ;
#9 = EDGE_CURVE ( 'NONE', #847, #612, #170, .T. ) ;
#10 = CARTESIAN_POINT ( 'NONE',  ( 81.99999999999998579, 46.00000000000000000, 3.000000000000000000 ) ) ;
#11 = VECTOR ( 'NONE', #825, 1000.000000000000000 ) ;
#12 = DIRECTION ( 'NONE',  ( -0.0000000000000000000, -0.0000000000000000000, -1.000000000000000000 ) ) ;
#13 = DIRECTION ( 'NONE',  ( -1.000000000000000000, 0.0000000000000000000, 0.0000000000000000000 ) ) ;
#14 = APPLICATION_CONTEXT ( 'automotive_design' ) ;
#15 = DIRECTION ( 'NONE',  ( 0.0000000000000000000, 1.000000000000000000, 0.0000000000000000000 ) ) ;
#16 = DIRECTION ( 'NONE',  ( 0.0000000000000000000, 0.0000000000000000000, 1.000000000000000000 ) ) ;
#17 = AXIS2_PLACEMENT_3D ( 'NONE', #713, #268, #864 ) ;
#18 =( LENGTH_UNIT ( ) NAMED_UNIT ( * ) SI_UNIT ( .MILLI., .METRE. ) );
#19 = CIRCLE ( 'NONE', #355, 3.000000000000000000 ) ;
#20 = CARTESIAN_POINT ( 'NONE',  ( 6.999999999999950262, 77.49999999999998579, 0.0000000000000000000 ) ) ;
#21 = VERTEX_POINT ( 'NONE', #326 ) ;
#22 = CARTESIAN_POINT ( 'NONE',  ( 81.99999999999998579, 46.00000000000000000, 0.0000000000000000000 ) ) ;
#23 = FACE_OUTER_BOUND ( 'NONE', #731, .T. ) ;
#24 = CARTESIAN_POINT ( 'NONE',  ( 81.99999999999998579, 0.0000000000000000000, 3.000000000000000000 ) ) ;
#25 = PRESENTATION_STYLE_ASSIGNMENT (( #693 ) ) ;
#26 = DIRECTION ( 'NONE',  ( -0.0000000000000000000, 0.0000000000000000000, 1.000000000000000000 ) ) ;
#27 = VECTOR ( 'NONE', #569, 1000.000000000000000 ) ;
#28 = CARTESIAN_POINT ( 'NONE',  ( 81.99999999999998579, 90.00000000000001421, 3.000000000000000000 ) ) ;
#29 = ADVANCED_FACE ( 'NONE', ( #701 ), #140, .T. ) ;
#30 = ORIENTED_EDGE ( 'NONE', *, *, #899, .T. ) ;
#31 = VECTOR ( 'NONE', #815, 1000.000000000000000 ) ;
#32 = CARTESIAN_POINT ( 'NONE',  ( 8.649999999999945288, 77.49999999999998579, 3.000000000000000000 ) ) ;
#33 = ADVANCED_FACE ( 'NONE', ( #103 ), #483, .F. ) ;
#34 = EDGE_CURVE ( 'NONE', #549, #245, #19, .T. ) ;
#35 = PRODUCT_DEFINITION_CONTEXT ( 'detailed design', #640, 'design' ) ;
#36 = EDGE_LOOP ( 'NONE', ( #131, #746, #687, #399 ) ) ;
#37 = ORIENTED_EDGE ( 'NONE', *, *, #387, .F. ) ;
#38 = ORIENTED_EDGE ( 'NONE', *, *, #160, .F. ) ;
#39 = LINE ( 'NONE', #24, #119 ) ;
#40 = AXIS2_PLACEMENT_3D ( 'NONE', #256, #414, #928 ) ;
#41 = EDGE_CURVE ( 'NONE', #152, #725, #852, .T. ) ;
#42 = DIRECTION ( 'NONE',  ( 1.000000000000000000, 0.0000000000000000000, 0.0000000000000000000 ) ) ;
#43 = AXIS2_PLACEMENT_3D ( 'NONE', #4, #277, #723 ) ;
#44 = CARTESIAN_POINT ( 'NONE',  ( 81.99999999999998579, 44.00000000000001421, 3.000000000000000000 ) ) ;
#45 = COLOUR_RGB ( '',0.7921568627450980005, 0.8196078431372548767, 0.9333333333333333481 ) ;
#46 = CYLINDRICAL_SURFACE ( 'NONE', #699, 1.700000000000000178 ) ;
#47 = CARTESIAN_POINT ( 'NONE',  ( 126.0000000000006111, 1.748601263784640332E-12, 3.000000000000000000 ) ) ;
#48 = CARTESIAN_POINT ( 'NONE',  ( 97.34999999999993747, 77.49999999999998579, 3.000000000000000000 ) ) ;
#49 = AXIS2_PLACEMENT_3D ( 'NONE', #647, #587, #729 ) ;
#50 = EDGE_CURVE ( 'NONE', #500, #203, #150, .T. ) ;
#51 = CARTESIAN_POINT ( 'NONE',  ( 97.34999999999993747, 12.49999999999997691, 0.0000000000000000000 ) ) ;
#52 = DIRECTION ( 'NONE',  ( 1.000000000000000000, 0.0000000000000000000, 0.0000000000000000000 ) ) ;
#53 = ADVANCED_FACE ( 'NONE', ( #751 ), #353, .T. ) ;
#54 = CARTESIAN_POINT ( 'NONE',  ( 0.0000000000000000000, 0.0000000000000000000, 3.000000000000000000 ) ) ;
#55 = EDGE_LOOP ( 'NONE', ( #91, #842, #934, #764, #448, #38, #747, #436 ) ) ;
#56 = DIRECTION ( 'NONE',  ( 1.000000000000000000, 0.0000000000000000000, 0.0000000000000000000 ) ) ;
#57 = DIRECTION ( 'NONE',  ( 1.000000000000000000, 0.0000000000000000000, 0.0000000000000000000 ) ) ;
#58 = VERTEX_POINT ( 'NONE', #482 ) ;
#59 = DIRECTION ( 'NONE',  ( 0.0000000000000000000, 0.0000000000000000000, -1.000000000000000000 ) ) ;
#60 = DIRECTION ( 'NONE',  ( 1.000000000000000000, 0.0000000000000000000, 0.0000000000000000000 ) ) ;
#61 = CARTESIAN_POINT ( 'NONE',  ( 5.000000000000000000, 85.00000000000000000, 3.000000000000000000 ) ) ;
#62 = EDGE_CURVE ( 'NONE', #612, #163, #520, .T. ) ;
#63 = CARTESIAN_POINT ( 'NONE',  ( 6.700000000000002842, 85.00000000000000000, 3.000000000000000000 ) ) ;
#64 = ORIENTED_EDGE ( 'NONE', *, *, #176, .F. ) ;
#65 = DIRECTION ( 'NONE',  ( 1.000000000000000000, 0.0000000000000000000, 0.0000000000000000000 ) ) ;
#66 = DIRECTION ( 'NONE',  ( -0.0000000000000000000, 0.0000000000000000000, 1.000000000000000000 ) ) ;
#67 = VECTOR ( 'NONE', #424, 1000.000000000000000 ) ;
#68 = EDGE_CURVE ( 'NONE', #600, #120, #220, .T. ) ;
#69 = CARTESIAN_POINT ( 'NONE',  ( 8.649999999999945288, 77.49999999999998579, 3.000000000000000000 ) ) ;
#70 = ORIENTED_EDGE ( 'NONE', *, *, #799, .F. ) ;
#71 = VERTEX_POINT ( 'NONE', #63 ) ;
#72 = CARTESIAN_POINT ( 'NONE',  ( 98.99999999999994316, 77.49999999999998579, 0.0000000000000000000 ) ) ;
#73 = CARTESIAN_POINT ( 'NONE',  ( 6.999999999999950262, 77.49999999999998579, 3.000000000000000000 ) ) ;
#74 = MANIFOLD_SOLID_BREP ( 'Zaokrąglenie1', #246 ) ;
#75 = EDGE_LOOP ( 'NONE', ( #819, #310, #453, #651 ) ) ;
#76 = CARTESIAN_POINT ( 'NONE',  ( 100.6499999999999631, 12.49999999999997691, 0.0000000000000000000 ) ) ;
#77 = FACE_BOUND ( 'NONE', #610, .T. ) ;
#78 = CARTESIAN_POINT ( 'NONE',  ( 100.6499999999999631, 77.49999999999998579, 3.000000000000000000 ) ) ;
#79 = EDGE_CURVE ( 'NONE', #203, #264, #811, .T. ) ;
#80 = PRODUCT_RELATED_PRODUCT_CATEGORY ( 'part', '', ( #762 ) ) ;
#81 = DIRECTION ( 'NONE',  ( 1.000000000000000000, 0.0000000000000000000, 0.0000000000000000000 ) ) ;
#82 = MECHANICAL_DESIGN_GEOMETRIC_PRESENTATION_REPRESENTATION (  '', ( #820 ), #171 ) ;
#83 = DIRECTION ( 'NONE',  ( 1.000000000000000000, 0.0000000000000000000, 0.0000000000000000000 ) ) ;
#84 = EDGE_CURVE ( 'NONE', #787, #426, #766, .T. ) ;
#85 = ORIENTED_EDGE ( 'NONE', *, *, #194, .F. ) ;
#86 = ORIENTED_EDGE ( 'NONE', *, *, #891, .T. ) ;
#87 = FACE_BOUND ( 'NONE', #289, .T. ) ;
#88 = DIRECTION ( 'NONE',  ( -0.0000000000000000000, 0.0000000000000000000, 1.000000000000000000 ) ) ;
#89 = VERTEX_POINT ( 'NONE', #636 ) ;
#90 = ORIENTED_EDGE ( 'NONE', *, *, #790, .T. ) ;
#91 = ORIENTED_EDGE ( 'NONE', *, *, #628, .F. ) ;
#92 = CYLINDRICAL_SURFACE ( 'NONE', #696, 1.650000000000012568 ) ;
#93 = DIRECTION ( 'NONE',  ( -0.0000000000000000000, -0.0000000000000000000, -1.000000000000000000 ) ) ;
#94 = AXIS2_PLACEMENT_3D ( 'NONE', #116, #335, #474 ) ;
#95 = DIRECTION ( 'NONE',  ( 0.0000000000000000000, -0.0000000000000000000, 1.000000000000000000 ) ) ;
#96 = VECTOR ( 'NONE', #567, 1000.000000000000000 ) ;
#97 = ORIENTED_EDGE ( 'NONE', *, *, #41, .F. ) ;
#98 = CARTESIAN_POINT ( 'NONE',  ( 98.99999999999994316, 12.49999999999997691, 3.000000000000000000 ) ) ;
#99 = ORIENTED_EDGE ( 'NONE', *, *, #578, .T. ) ;
#100 = FACE_OUTER_BOUND ( 'NONE', #789, .T. ) ;
#101 = EDGE_LOOP ( 'NONE', ( #622, #906, #348, #702 ) ) ;
#102 = CARTESIAN_POINT ( 'NONE',  ( 0.0000000000000000000, 0.0000000000000000000, 3.000000000000000000 ) ) ;
#103 = FACE_OUTER_BOUND ( 'NONE', #462, .T. ) ;
#104 = CARTESIAN_POINT ( 'NONE',  ( 52.99999999999995737, 44.99999999999997868, 0.0000000000000000000 ) ) ;
#105 = ORIENTED_EDGE ( 'NONE', *, *, #671, .F. ) ;
#106 = CIRCLE ( 'NONE', #841, 3.000000000000000000 ) ;
#107 = FACE_OUTER_BOUND ( 'NONE', #101, .T. ) ;
#108 = AXIS2_PLACEMENT_3D ( 'NONE', #20, #514, #511 ) ;
#109 = EDGE_CURVE ( 'NONE', #665, #549, #185, .T. ) ;
#110 = CIRCLE ( 'NONE', #822, 1.700000000000000178 ) ;
#111 = ADVANCED_FACE ( 'NONE', ( #23 ), #757, .F. ) ;
#112 = DIRECTION ( 'NONE',  ( -1.000000000000000000, -1.387778780781453880E-14, 0.0000000000000000000 ) ) ;
#113 = VECTOR ( 'NONE', #779, 1000.000000000000000 ) ;
#114 = ORIENTED_EDGE ( 'NONE', *, *, #304, .F. ) ;
#115 = CYLINDRICAL_SURFACE ( 'NONE', #431, 1.650000000000002132 ) ;
#116 = CARTESIAN_POINT ( 'NONE',  ( 81.99999999999998579, 44.00000000000001421, 3.000000000000000000 ) ) ;
#117 = ADVANCED_FACE ( 'NONE', ( #301 ), #92, .F. ) ;
#118 = VERTEX_POINT ( 'NONE', #642 ) ;
#119 = VECTOR ( 'NONE', #151, 1000.000000000000000 ) ;
#120 = VERTEX_POINT ( 'NONE', #859 ) ;
#121 = CARTESIAN_POINT ( 'NONE',  ( 122.6999999999999744, 45.00000000000001421, 0.0000000000000000000 ) ) ;
#122 = CARTESIAN_POINT ( 'NONE',  ( 52.99999999999995737, 44.99999999999997868, 3.000000000000000000 ) ) ;
#123 = VERTEX_POINT ( 'NONE', #798 ) ;
#124 = VERTEX_POINT ( 'NONE', #568 ) ;
#125 = DIRECTION ( 'NONE',  ( -0.0000000000000000000, 0.0000000000000000000, 1.000000000000000000 ) ) ;
#126 = VECTOR ( 'NONE', #721, 1000.000000000000000 ) ;
#127 = CARTESIAN_POINT ( 'NONE',  ( 0.0000000000000000000, 0.0000000000000000000, 3.000000000000000000 ) ) ;
#128 = ORIENTED_EDGE ( 'NONE', *, *, #293, .F. ) ;
#129 = ORIENTED_EDGE ( 'NONE', *, *, #834, .F. ) ;
#130 = FILL_AREA_STYLE ('',( #413 ) ) ;
#131 = ORIENTED_EDGE ( 'NONE', *, *, #480, .F. ) ;
#132 = VECTOR ( 'NONE', #148, 1000.000000000000000 ) ;
#133 = CARTESIAN_POINT ( 'NONE',  ( 3.000000000000000000, 87.00000000000001421, 3.000000000000000000 ) ) ;
#134 = VECTOR ( 'NONE', #686, 1000.000000000000000 ) ;
#135 = CARTESIAN_POINT ( 'NONE',  ( 6.700000000000001066, 5.000000000000000000, 0.0000000000000000000 ) ) ;
#136 = DIRECTION ( 'NONE',  ( -0.0000000000000000000, -0.0000000000000000000, -1.000000000000000000 ) ) ;
#137 = DIRECTION ( 'NONE',  ( -1.000000000000000000, 0.0000000000000000000, 0.0000000000000000000 ) ) ;
#138 = DIRECTION ( 'NONE',  ( 1.000000000000000000, 0.0000000000000000000, 0.0000000000000000000 ) ) ;
#139 = CARTESIAN_POINT ( 'NONE',  ( 81.99999999999998579, 44.00000000000001421, 0.0000000000000000000 ) ) ;
#140 = CYLINDRICAL_SURFACE ( 'NONE', #759, 3.000000000000000000 ) ;
#141 = CYLINDRICAL_SURFACE ( 'NONE', #795, 1.699999999999993072 ) ;
#142 = DIRECTION ( 'NONE',  ( -1.000000000000000000, 0.0000000000000000000, 0.0000000000000000000 ) ) ;
#143 = ORIENTED_EDGE ( 'NONE', *, *, #652, .T. ) ;
#144 = DIRECTION ( 'NONE',  ( -0.0000000000000000000, 0.0000000000000000000, 1.000000000000000000 ) ) ;
#145 = VECTOR ( 'NONE', #93, 1000.000000000000000 ) ;
#146 = CYLINDRICAL_SURFACE ( 'NONE', #40, 3.000000000000002665 ) ;
#147 = AXIS2_PLACEMENT_3D ( 'NONE', #422, #577, #81 ) ;
#148 = DIRECTION ( 'NONE',  ( -0.0000000000000000000, -0.0000000000000000000, 1.000000000000000000 ) ) ;
#149 = AXIS2_PLACEMENT_3D ( 'NONE', #867, #781, #13 ) ;
#150 = LINE ( 'NONE', #548, #804 ) ;
#151 = DIRECTION ( 'NONE',  ( -0.0000000000000000000, -0.0000000000000000000, -1.000000000000000000 ) ) ;
#152 = VERTEX_POINT ( 'NONE', #282 ) ;
#153 = CIRCLE ( 'NONE', #690, 44.00000000000001421 ) ;
#154 = ORIENTED_EDGE ( 'NONE', *, *, #502, .T. ) ;
#155 = ORIENTED_EDGE ( 'NONE', *, *, #556, .T. ) ;
#156 = EDGE_LOOP ( 'NONE', ( #920, #70, #580, #184 ) ) ;
#157 = CIRCLE ( 'NONE', #302, 1.650000000000012568 ) ;
#158 = CARTESIAN_POINT ( 'NONE',  ( 3.000000000000000000, 0.0000000000000000000, 3.000000000000000000 ) ) ;
#159 =( NAMED_UNIT ( * ) SI_UNIT ( $, .STERADIAN. ) SOLID_ANGLE_UNIT ( ) );
#160 = EDGE_CURVE ( 'NONE', #860, #270, #588, .T. ) ;
#161 = EDGE_CURVE ( 'NONE', #264, #123, #630, .T. ) ;
#162 = DIRECTION ( 'NONE',  ( -0.0000000000000000000, 0.0000000000000000000, 1.000000000000000000 ) ) ;
#163 = VERTEX_POINT ( 'NONE', #76 ) ;
#164 = FACE_OUTER_BOUND ( 'NONE', #281, .T. ) ;
#165 = ADVANCED_FACE ( 'NONE', ( #565 ), #390, .F. ) ;
#166 = EDGE_LOOP ( 'NONE', ( #900, #85 ) ) ;
#167 = DIRECTION ( 'NONE',  ( 1.000000000000000000, 0.0000000000000000000, 0.0000000000000000000 ) ) ;
#168 = ADVANCED_FACE ( 'NONE', ( #107 ), #515, .F. ) ;
#169 = EDGE_CURVE ( 'NONE', #367, #319, #678, .T. ) ;
#170 = LINE ( 'NONE', #181, #343 ) ;
#171 =( GEOMETRIC_REPRESENTATION_CONTEXT ( 3 ) GLOBAL_UNCERTAINTY_ASSIGNED_CONTEXT ( ( #553 ) ) GLOBAL_UNIT_ASSIGNED_CONTEXT ( ( #218, #579, #221 ) ) REPRESENTATION_CONTEXT ( 'NONE', 'WORKASPACE' ) );
#172 = ORIENTED_EDGE ( 'NONE', *, *, #9, .F. ) ;
#173 = DIRECTION ( 'NONE',  ( -1.000000000000000000, 0.0000000000000000000, 0.0000000000000000000 ) ) ;
#174 = EDGE_LOOP ( 'NONE', ( #155, #408, #97, #828 ) ) ;
#175 = DIRECTION ( 'NONE',  ( 0.0000000000000000000, 1.000000000000000000, -0.0000000000000000000 ) ) ;
#176 = EDGE_CURVE ( 'NONE', #58, #347, #247, .T. ) ;
#177 = DIRECTION ( 'NONE',  ( -0.0000000000000000000, 0.0000000000000000000, 1.000000000000000000 ) ) ;
#178 = SURFACE_STYLE_FILL_AREA ( #130 ) ;
#179 = DIRECTION ( 'NONE',  ( -1.387778780781453880E-14, 1.000000000000000000, 0.0000000000000000000 ) ) ;
#180 = VECTOR ( 'NONE', #635, 1000.000000000000000 ) ;
#181 = CARTESIAN_POINT ( 'NONE',  ( 97.34999999999993747, 12.49999999999997691, 3.000000000000000000 ) ) ;
#182 = EDGE_LOOP ( 'NONE', ( #224, #405, #887, #369 ) ) ;
#183 = CARTESIAN_POINT ( 'NONE',  ( 100.6499999999999631, 12.49999999999997691, 3.000000000000000000 ) ) ;
#184 = ORIENTED_EDGE ( 'NONE', *, *, #321, .T. ) ;
#185 = LINE ( 'NONE', #786, #132 ) ;
#186 = ADVANCED_FACE ( 'NONE', ( #322 ), #206, .T. ) ;
#187 = AXIS2_PLACEMENT_3D ( 'NONE', #342, #848, #708 ) ;
#188 = AXIS2_PLACEMENT_3D ( 'NONE', #442, #583, #83 ) ;
#189 = ORIENTED_EDGE ( 'NONE', *, *, #734, .T. ) ;
#190 = EDGE_CURVE ( 'NONE', #691, #124, #359, .T. ) ;
#191 = DIRECTION ( 'NONE',  ( -0.0000000000000000000, 0.0000000000000000000, 1.000000000000000000 ) ) ;
#192 = EDGE_LOOP ( 'NONE', ( #809, #522, #547, #394 ) ) ;
#193 = DIRECTION ( 'NONE',  ( -0.0000000000000000000, -0.0000000000000000000, -1.000000000000000000 ) ) ;
#194 = EDGE_CURVE ( 'NONE', #882, #89, #236, .T. ) ;
#195 = CARTESIAN_POINT ( 'NONE',  ( 81.99999999999998579, 0.0000000000000000000, 0.0000000000000000000 ) ) ;
#196 = AXIS2_PLACEMENT_3D ( 'NONE', #386, #315, #226 ) ;
#197 = CYLINDRICAL_SURFACE ( 'NONE', #219, 1.649999999999995248 ) ;
#198 = EDGE_CURVE ( 'NONE', #328, #367, #257, .T. ) ;
#199 = CYLINDRICAL_SURFACE ( 'NONE', #541, 1.649999999999995248 ) ;
#200 = EDGE_CURVE ( 'NONE', #245, #509, #542, .T. ) ;
#201 = DIRECTION ( 'NONE',  ( 0.0000000000000000000, -0.0000000000000000000, 1.000000000000000000 ) ) ;
#202 = EDGE_LOOP ( 'NONE', ( #318, #316 ) ) ;
#203 = VERTEX_POINT ( 'NONE', #211 ) ;
#204 = CARTESIAN_POINT ( 'NONE',  ( 6.700000000000000178, 5.000000000000000000, 3.000000000000000000 ) ) ;
#205 = VECTOR ( 'NONE', #922, 1000.000000000000000 ) ;
#206 = PLANE ( 'NONE',  #458 ) ;
#207 = DIRECTION ( 'NONE',  ( -0.0000000000000000000, 0.0000000000000000000, 1.000000000000000000 ) ) ;
#208 = DIRECTION ( 'NONE',  ( -1.000000000000000000, 0.0000000000000000000, 0.0000000000000000000 ) ) ;
#209 = ORIENTED_EDGE ( 'NONE', *, *, #407, .F. ) ;
#210 = EDGE_CURVE ( 'NONE', #71, #235, #581, .T. ) ;
#211 = CARTESIAN_POINT ( 'NONE',  ( 0.0000000000000000000, 87.00000000000001421, 0.0000000000000000000 ) ) ;
#212 = ORIENTED_EDGE ( 'NONE', *, *, #161, .T. ) ;
#213 =( NAMED_UNIT ( * ) PLANE_ANGLE_UNIT ( ) SI_UNIT ( $, .RADIAN. ) );
#214 = ORIENTED_EDGE ( 'NONE', *, *, #494, .T. ) ;
#215 = CARTESIAN_POINT ( 'NONE',  ( 5.000000000000000000, 5.000000000000000000, 3.000000000000000000 ) ) ;
#216 = CARTESIAN_POINT ( 'NONE',  ( 5.000000000000000000, 85.00000000000000000, 3.000000000000000000 ) ) ;
#217 = EDGE_CURVE ( 'NONE', #21, #675, #39, .T. ) ;
#218 =( LENGTH_UNIT ( ) NAMED_UNIT ( * ) SI_UNIT ( .MILLI., .METRE. ) );
#219 = AXIS2_PLACEMENT_3D ( 'NONE', #73, #868, #423 ) ;
#220 = LINE ( 'NONE', #625, #782 ) ;
#221 =( NAMED_UNIT ( * ) SI_UNIT ( $, .STERADIAN. ) SOLID_ANGLE_UNIT ( ) );
#222 = DIRECTION ( 'NONE',  ( -0.0000000000000000000, 0.0000000000000000000, 1.000000000000000000 ) ) ;
#223 = ORIENTED_EDGE ( 'NONE', *, *, #198, .F. ) ;
#224 = ORIENTED_EDGE ( 'NONE', *, *, #790, .F. ) ;
#225 = LINE ( 'NONE', #592, #205 ) ;
#226 = DIRECTION ( 'NONE',  ( 1.000000000000000000, 0.0000000000000000000, 0.0000000000000000000 ) ) ;
#227 = EDGE_CURVE ( 'NONE', #319, #904, #524, .T. ) ;
#228 = DIRECTION ( 'NONE',  ( -0.0000000000000000000, 0.0000000000000000000, 1.000000000000000000 ) ) ;
#229 = ORIENTED_EDGE ( 'NONE', *, *, #217, .T. ) ;
#230 = AXIS2_PLACEMENT_3D ( 'NONE', #550, #193, #703 ) ;
#231 = DIRECTION ( 'NONE',  ( 1.000000000000000000, 0.0000000000000000000, 0.0000000000000000000 ) ) ;
#232 = ORIENTED_EDGE ( 'NONE', *, *, #161, .F. ) ;
#233 = AXIS2_PLACEMENT_3D ( 'NONE', #215, #292, #733 ) ;
#234 = CARTESIAN_POINT ( 'NONE',  ( 3.299999999999999822, 5.000000000000000000, 3.000000000000000000 ) ) ;
#235 = VERTEX_POINT ( 'NONE', #518 ) ;
#236 = CIRCLE ( 'NONE', #7, 1.700000000000000178 ) ;
#237 = ORIENTED_EDGE ( 'NONE', *, *, #265, .F. ) ;
#238 = DIRECTION ( 'NONE',  ( -0.0000000000000000000, -0.0000000000000000000, -1.000000000000000000 ) ) ;
#239 = DIRECTION ( 'NONE',  ( -0.0000000000000000000, -0.0000000000000000000, -1.000000000000000000 ) ) ;
#240 = ORIENTED_EDGE ( 'NONE', *, *, #834, .T. ) ;
#241 = LINE ( 'NONE', #421, #180 ) ;
#242 = CARTESIAN_POINT ( 'NONE',  ( 0.0000000000000000000, 3.000000000000000000, 3.000000000000000000 ) ) ;
#243 = ORIENTED_EDGE ( 'NONE', *, *, #227, .T. ) ;
#244 = AXIS2_PLACEMENT_3D ( 'NONE', #377, #894, #447 ) ;
#245 = VERTEX_POINT ( 'NONE', #158 ) ;
#246 = CLOSED_SHELL ( 'NONE', ( #680, #590, #769, #117, #329, #836, #168, #594, #843, #111, #685, #33, #165, #912, #661, #254, #916, #814, #403, #615, #609, #338, #750, #186, #53, #29 ) ) ;
#247 = CIRCLE ( 'NONE', #807, 1.700000000000002620 ) ;
#248 = EDGE_CURVE ( 'NONE', #367, #328, #334, .T. ) ;
#249 = CIRCLE ( 'NONE', #881, 1.699999999999993072 ) ;
#250 = CARTESIAN_POINT ( 'NONE',  ( 98.99999999999994316, 77.49999999999998579, 0.0000000000000000000 ) ) ;
#251 = DIRECTION ( 'NONE',  ( -0.0000000000000000000, -0.0000000000000000000, -1.000000000000000000 ) ) ;
#252 = ORIENTED_EDGE ( 'NONE', *, *, #905, .F. ) ;
#253 = CARTESIAN_POINT ( 'NONE',  ( 98.99999999999994316, 12.49999999999997691, 3.000000000000000000 ) ) ;
#254 = ADVANCED_FACE ( 'NONE', ( #694 ), #477, .F. ) ;
#255 = ORIENTED_EDGE ( 'NONE', *, *, #41, .T. ) ;
#256 = CARTESIAN_POINT ( 'NONE',  ( 52.99999999999995737, 44.99999999999997868, 3.000000000000000000 ) ) ;
#257 = CIRCLE ( 'NONE', #188, 1.649999999999995248 ) ;
#258 = CARTESIAN_POINT ( 'NONE',  ( 5.349999999999969447, 12.49999999999997691, 3.000000000000000000 ) ) ;
#259 = AXIS2_PLACEMENT_3D ( 'NONE', #626, #574, #440 ) ;
#260 = CARTESIAN_POINT ( 'NONE',  ( 0.0000000000000000000, 3.000000000000000000, 0.0000000000000000000 ) ) ;
#261 = EDGE_LOOP ( 'NONE', ( #128, #824, #349, #300, #212, #333, #496, #648 ) ) ;
#262 = DIRECTION ( 'NONE',  ( 1.000000000000000000, 0.0000000000000000000, 0.0000000000000000000 ) ) ;
#263 = FACE_BOUND ( 'NONE', #831, .T. ) ;
#264 = VERTEX_POINT ( 'NONE', #372 ) ;
#265 = EDGE_CURVE ( 'NONE', #712, #118, #664, .T. ) ;
#266 = CARTESIAN_POINT ( 'NONE',  ( 0.0000000000000000000, 0.0000000000000000000, 0.0000000000000000000 ) ) ;
#267 = FACE_OUTER_BOUND ( 'NONE', #36, .T. ) ;
#268 = DIRECTION ( 'NONE',  ( 0.0000000000000000000, -0.0000000000000000000, -1.000000000000000000 ) ) ;
#269 = ORIENTED_EDGE ( 'NONE', *, *, #617, .T. ) ;
#270 = VERTEX_POINT ( 'NONE', #742 ) ;
#271 = DIRECTION ( 'NONE',  ( -0.0000000000000000000, 0.0000000000000000000, 1.000000000000000000 ) ) ;
#272 = DIRECTION ( 'NONE',  ( -0.0000000000000000000, -0.0000000000000000000, -1.000000000000000000 ) ) ;
#273 = EDGE_LOOP ( 'NONE', ( #914, #475 ) ) ;
#274 = FACE_OUTER_BOUND ( 'NONE', #182, .T. ) ;
#275 = CARTESIAN_POINT ( 'NONE',  ( 6.999999999999971578, 12.49999999999997691, 3.000000000000000000 ) ) ;
#276 = CARTESIAN_POINT ( 'NONE',  ( 0.0000000000000000000, 0.0000000000000000000, 0.0000000000000000000 ) ) ;
#277 = DIRECTION ( 'NONE',  ( -0.0000000000000000000, -0.0000000000000000000, -1.000000000000000000 ) ) ;
#278 = CARTESIAN_POINT ( 'NONE',  ( 5.349999999999955236, 77.49999999999998579, 0.0000000000000000000 ) ) ;
#279 = LINE ( 'NONE', #499, #96 ) ;
#280 = EDGE_CURVE ( 'NONE', #123, #598, #288, .T. ) ;
#281 = EDGE_LOOP ( 'NONE', ( #551, #613, #908, #172 ) ) ;
#282 = CARTESIAN_POINT ( 'NONE',  ( 119.2999999999999829, 45.00000000000001421, 0.0000000000000000000 ) ) ;
#283 = LINE ( 'NONE', #285, #27 ) ;
#284 = CARTESIAN_POINT ( 'NONE',  ( 0.0000000000000000000, 90.00000000000001421, 3.000000000000000000 ) ) ;
#285 = CARTESIAN_POINT ( 'NONE',  ( 55.99999999999995737, 44.99999999999997868, 3.000000000000000000 ) ) ;
#286 = EDGE_LOOP ( 'NONE', ( #808, #419, #709, #756 ) ) ;
#287 = CARTESIAN_POINT ( 'NONE',  ( 98.99999999999994316, 77.49999999999998579, 3.000000000000000000 ) ) ;
#288 = CIRCLE ( 'NONE', #604, 44.00000000000001421 ) ;
#289 = EDGE_LOOP ( 'NONE', ( #637, #243 ) ) ;
#290 = LINE ( 'NONE', #749, #740 ) ;
#291 = AXIS2_PLACEMENT_3D ( 'NONE', #216, #26, #803 ) ;
#292 = DIRECTION ( 'NONE',  ( -0.0000000000000000000, -0.0000000000000000000, -1.000000000000000000 ) ) ;
#293 = EDGE_CURVE ( 'NONE', #509, #675, #896, .T. ) ;
#294 = SHAPE_DEFINITION_REPRESENTATION ( #926, #863 ) ;
#295 = ORIENTED_EDGE ( 'NONE', *, *, #176, .T. ) ;
#296 = EDGE_LOOP ( 'NONE', ( #366, #90, #209, #719 ) ) ;
#297 = FACE_BOUND ( 'NONE', #388, .T. ) ;
#298 = VERTEX_POINT ( 'NONE', #800 ) ;
#299 = ORIENTED_EDGE ( 'NONE', *, *, #741, .F. ) ;
#300 = ORIENTED_EDGE ( 'NONE', *, *, #79, .T. ) ;
#301 = FACE_OUTER_BOUND ( 'NONE', #856, .T. ) ;
#302 = AXIS2_PLACEMENT_3D ( 'NONE', #404, #325, #605 ) ;
#303 = CARTESIAN_POINT ( 'NONE',  ( 8.649999999999945288, 77.49999999999998579, 0.0000000000000000000 ) ) ;
#304 = EDGE_CURVE ( 'NONE', #860, #123, #876, .T. ) ;
#305 = AXIS2_PLACEMENT_3D ( 'NONE', #276, #356, #788 ) ;
#306 = FACE_OUTER_BOUND ( 'NONE', #55, .T. ) ;
#307 = EDGE_LOOP ( 'NONE', ( #489, #537, #406, #473 ) ) ;
#308 = CIRCLE ( 'NONE', #187, 1.650000000000012568 ) ;
#309 = CARTESIAN_POINT ( 'NONE',  ( 81.99999999999998579, 46.00000000000000000, 3.000000000000000000 ) ) ;
#310 = ORIENTED_EDGE ( 'NONE', *, *, #194, .T. ) ;
#311 = LINE ( 'NONE', #883, #145 ) ;
#312 = CIRCLE ( 'NONE', #196, 1.650000000000012568 ) ;
#313 = CARTESIAN_POINT ( 'NONE',  ( 3.299999999999997602, 85.00000000000000000, 0.0000000000000000000 ) ) ;
#314 = ORIENTED_EDGE ( 'NONE', *, *, #293, .T. ) ;
#315 = DIRECTION ( 'NONE',  ( -0.0000000000000000000, 0.0000000000000000000, 1.000000000000000000 ) ) ;
#316 = ORIENTED_EDGE ( 'NONE', *, *, #454, .T. ) ;
#317 = CIRCLE ( 'NONE', #497, 1.650000000000012568 ) ;
#318 = ORIENTED_EDGE ( 'NONE', *, *, #62, .T. ) ;
#319 = VERTEX_POINT ( 'NONE', #303 ) ;
#320 = CARTESIAN_POINT ( 'NONE',  ( 126.0000000000006111, 1.748601263784640332E-12, 0.0000000000000000000 ) ) ;
#321 = EDGE_CURVE ( 'NONE', #523, #901, #311, .T. ) ;
#322 = FACE_OUTER_BOUND ( 'NONE', #8, .T. ) ;
#323 = UNCERTAINTY_MEASURE_WITH_UNIT (LENGTH_MEASURE( 1.000000000000000082E-05 ), #18, 'distance_accuracy_value', 'NONE');
#324 = CIRCLE ( 'NONE', #444, 44.00000000000001421 ) ;
#325 = DIRECTION ( 'NONE',  ( -0.0000000000000000000, 0.0000000000000000000, 1.000000000000000000 ) ) ;
#326 = CARTESIAN_POINT ( 'NONE',  ( 81.99999999999998579, 0.0000000000000000000, 3.000000000000000000 ) ) ;
#327 = CARTESIAN_POINT ( 'NONE',  ( 126.0000000000000000, 44.00000000000001421, 3.000000000000000000 ) ) ;
#328 = VERTEX_POINT ( 'NONE', #890 ) ;
#329 = ADVANCED_FACE ( 'NONE', ( #164 ), #879, .F. ) ;
#330 = VECTOR ( 'NONE', #851, 1000.000000000000000 ) ;
#331 = DIRECTION ( 'NONE',  ( -1.000000000000000000, 0.0000000000000000000, 0.0000000000000000000 ) ) ;
#332 = SURFACE_SIDE_STYLE ('',( #178 ) ) ;
#333 = ORIENTED_EDGE ( 'NONE', *, *, #280, .T. ) ;
#334 = CIRCLE ( 'NONE', #554, 1.649999999999995248 ) ;
#335 = DIRECTION ( 'NONE',  ( -0.0000000000000000000, -0.0000000000000000000, -1.000000000000000000 ) ) ;
#336 = ORIENTED_EDGE ( 'NONE', *, *, #494, .F. ) ;
#337 = CIRCLE ( 'NONE', #732, 1.700000000000002620 ) ;
#338 = ADVANCED_FACE ( 'NONE', ( #100 ), #371, .T. ) ;
#339 = DIRECTION ( 'NONE',  ( 0.0000000000000000000, -0.0000000000000000000, 1.000000000000000000 ) ) ;
#340 = DIRECTION ( 'NONE',  ( 1.000000000000000000, 0.0000000000000000000, 0.0000000000000000000 ) ) ;
#341 = AXIS2_PLACEMENT_3D ( 'NONE', #655, #222, #582 ) ;
#342 = CARTESIAN_POINT ( 'NONE',  ( 98.99999999999994316, 77.49999999999998579, 3.000000000000000000 ) ) ;
#343 = VECTOR ( 'NONE', #689, 1000.000000000000000 ) ;
#344 = DIRECTION ( 'NONE',  ( 1.000000000000000000, 0.0000000000000000000, 0.0000000000000000000 ) ) ;
#345 = VECTOR ( 'NONE', #415, 1000.000000000000000 ) ;
#346 = CARTESIAN_POINT ( 'NONE',  ( 6.999999999999971578, 12.49999999999997691, 0.0000000000000000000 ) ) ;
#347 = VERTEX_POINT ( 'NONE', #313 ) ;
#348 = ORIENTED_EDGE ( 'NONE', *, *, #502, .F. ) ;
#349 = ORIENTED_EDGE ( 'NONE', *, *, #744, .T. ) ;
#350 = CARTESIAN_POINT ( 'NONE',  ( 119.2999999999999829, 45.00000000000001421, 3.000000000000000000 ) ) ;
#351 = CIRCLE ( 'NONE', #910, 1.699999999999993072 ) ;
#352 = CARTESIAN_POINT ( 'NONE',  ( 98.99999999999994316, 77.49999999999998579, 3.000000000000000000 ) ) ;
#353 = CYLINDRICAL_SURFACE ( 'NONE', #593, 3.000000000000000000 ) ;
#354 = CARTESIAN_POINT ( 'NONE',  ( 97.34999999999993747, 12.49999999999997691, 3.000000000000000000 ) ) ;
#355 = AXIS2_PLACEMENT_3D ( 'NONE', #768, #191, #410 ) ;
#356 = DIRECTION ( 'NONE',  ( -0.0000000000000000000, 0.0000000000000000000, 1.000000000000000000 ) ) ;
#357 = FACE_BOUND ( 'NONE', #486, .T. ) ;
#358 = DIRECTION ( 'NONE',  ( -0.0000000000000000000, -0.0000000000000000000, -1.000000000000000000 ) ) ;
#359 = CIRCLE ( 'NONE', #147, 1.700000000000000178 ) ;
#360 = DIRECTION ( 'NONE',  ( -0.0000000000000000000, -0.0000000000000000000, -1.000000000000000000 ) ) ;
#361 = LINE ( 'NONE', #521, #400 ) ;
#362 = DIRECTION ( 'NONE',  ( -0.0000000000000000000, 0.0000000000000000000, 1.000000000000000000 ) ) ;
#363 = SURFACE_STYLE_FILL_AREA ( #728 ) ;
#364 = DIRECTION ( 'NONE',  ( 1.000000000000000000, 0.0000000000000000000, 0.0000000000000000000 ) ) ;
#365 = EDGE_CURVE ( 'NONE', #904, #319, #420, .T. ) ;
#366 = ORIENTED_EDGE ( 'NONE', *, *, #265, .T. ) ;
#367 = VERTEX_POINT ( 'NONE', #32 ) ;
#368 = APPLICATION_PROTOCOL_DEFINITION ( 'draft international standard', 'automotive_design', 1998, #640 ) ;
#369 = ORIENTED_EDGE ( 'NONE', *, *, #472, .F. ) ;
#370 = CIRCLE ( 'NONE', #684, 3.000000000000002665 ) ;
#371 = CYLINDRICAL_SURFACE ( 'NONE', #805, 44.00000000000000000 ) ;
#372 = CARTESIAN_POINT ( 'NONE',  ( 3.000000000000000000, 90.00000000000001421, 0.0000000000000000000 ) ) ;
#373 = EDGE_CURVE ( 'NONE', #529, #847, #724, .T. ) ;
#374 = CARTESIAN_POINT ( 'NONE',  ( 5.000000000000000000, 5.000000000000000000, 3.000000000000000000 ) ) ;
#375 = LINE ( 'NONE', #266, #67 ) ;
#376 = DIRECTION ( 'NONE',  ( 1.000000000000000000, 0.0000000000000000000, 0.0000000000000000000 ) ) ;
#377 = CARTESIAN_POINT ( 'NONE',  ( 52.99999999999995737, 44.99999999999997868, 0.0000000000000000000 ) ) ;
#378 = EDGE_LOOP ( 'NONE', ( #797, #722, #602, #829 ) ) ;
#379 = CIRCLE ( 'NONE', #536, 1.650000000000002132 ) ;
#380 = EDGE_CURVE ( 'NONE', #89, #124, #643, .T. ) ;
#381 = DIRECTION ( 'NONE',  ( -0.0000000000000000000, 0.0000000000000000000, 1.000000000000000000 ) ) ;
#382 = AXIS2_PLACEMENT_3D ( 'NONE', #875, #207, #796 ) ;
#383 = CARTESIAN_POINT ( 'NONE',  ( 6.999999999999950262, 77.49999999999998579, 0.0000000000000000000 ) ) ;
#384 = ORIENTED_EDGE ( 'NONE', *, *, #681, .T. ) ;
#385 = AXIS2_PLACEMENT_3D ( 'NONE', #102, #601, #95 ) ;
#386 = CARTESIAN_POINT ( 'NONE',  ( 98.99999999999994316, 12.49999999999997691, 0.0000000000000000000 ) ) ;
#387 = EDGE_CURVE ( 'NONE', #752, #429, #379, .T. ) ;
#388 = EDGE_LOOP ( 'NONE', ( #336, #677 ) ) ;
#389 = ORIENTED_EDGE ( 'NONE', *, *, #700, .F. ) ;
#390 = CYLINDRICAL_SURFACE ( 'NONE', #450, 1.650000000000012568 ) ;
#391 = DIRECTION ( 'NONE',  ( -1.000000000000000000, 0.0000000000000000000, 0.0000000000000000000 ) ) ;
#392 = CARTESIAN_POINT ( 'NONE',  ( 3.299999999999997602, 85.00000000000000000, 3.000000000000000000 ) ) ;
#393 = FACE_OUTER_BOUND ( 'NONE', #705, .T. ) ;
#394 = ORIENTED_EDGE ( 'NONE', *, *, #227, .F. ) ;
#395 = DIRECTION ( 'NONE',  ( 1.000000000000000000, 0.0000000000000000000, 0.0000000000000000000 ) ) ;
#396 = AXIS2_PLACEMENT_3D ( 'NONE', #1, #837, #56 ) ;
#397 = ORIENTED_EDGE ( 'NONE', *, *, #754, .T. ) ;
#398 = VECTOR ( 'NONE', #138, 1000.000000000000000 ) ;
#399 = ORIENTED_EDGE ( 'NONE', *, *, #845, .F. ) ;
#400 = VECTOR ( 'NONE', #755, 1000.000000000000000 ) ;
#401 = AXIS2_PLACEMENT_3D ( 'NONE', #564, #15, #201 ) ;
#402 =( LENGTH_UNIT ( ) NAMED_UNIT ( * ) SI_UNIT ( .MILLI., .METRE. ) );
#403 = ADVANCED_FACE ( 'NONE', ( #812 ), #813, .F. ) ;
#404 = CARTESIAN_POINT ( 'NONE',  ( 98.99999999999994316, 77.49999999999998579, 3.000000000000000000 ) ) ;
#405 = ORIENTED_EDGE ( 'NONE', *, *, #671, .T. ) ;
#406 = ORIENTED_EDGE ( 'NONE', *, *, #365, .F. ) ;
#407 = EDGE_CURVE ( 'NONE', #802, #816, #2, .T. ) ;
#408 = ORIENTED_EDGE ( 'NONE', *, *, #700, .T. ) ;
#409 = DIRECTION ( 'NONE',  ( 1.000000000000000000, 0.0000000000000000000, 0.0000000000000000000 ) ) ;
#410 = DIRECTION ( 'NONE',  ( 1.000000000000000000, 0.0000000000000000000, 0.0000000000000000000 ) ) ;
#411 = PLANE ( 'NONE',  #730 ) ;
#412 = CARTESIAN_POINT ( 'NONE',  ( 8.649999999999973710, 12.49999999999997691, 3.000000000000000000 ) ) ;
#413 = FILL_AREA_STYLE_COLOUR ( '', #45 ) ;
#414 = DIRECTION ( 'NONE',  ( -0.0000000000000000000, -0.0000000000000000000, -1.000000000000000000 ) ) ;
#415 = DIRECTION ( 'NONE',  ( -1.387778780781453880E-14, 1.000000000000000000, 0.0000000000000000000 ) ) ;
#416 = DIRECTION ( 'NONE',  ( 1.000000000000000000, 0.0000000000000000000, 0.0000000000000000000 ) ) ;
#417 = VERTEX_POINT ( 'NONE', #663 ) ;
#418 = DIRECTION ( 'NONE',  ( 1.000000000000000000, 0.0000000000000000000, 0.0000000000000000000 ) ) ;
#419 = ORIENTED_EDGE ( 'NONE', *, *, #617, .F. ) ;
#420 = CIRCLE ( 'NONE', #711, 1.649999999999995248 ) ;
#421 = CARTESIAN_POINT ( 'NONE',  ( 0.0000000000000000000, 0.0000000000000000000, 3.000000000000000000 ) ) ;
#422 = CARTESIAN_POINT ( 'NONE',  ( 5.000000000000000000, 5.000000000000000000, 0.0000000000000000000 ) ) ;
#423 = DIRECTION ( 'NONE',  ( -1.000000000000000000, 0.0000000000000000000, 0.0000000000000000000 ) ) ;
#424 = DIRECTION ( 'NONE',  ( 0.0000000000000000000, 1.000000000000000000, -0.0000000000000000000 ) ) ;
#425 = DIRECTION ( 'NONE',  ( 1.000000000000000000, 0.0000000000000000000, 0.0000000000000000000 ) ) ;
#426 = VERTEX_POINT ( 'NONE', #670 ) ;
#427 = CARTESIAN_POINT ( 'NONE',  ( 6.999999999999971578, 12.49999999999997691, 3.000000000000000000 ) ) ;
#428 = LINE ( 'NONE', #491, #345 ) ;
#429 = VERTEX_POINT ( 'NONE', #898 ) ;
#430 = DIRECTION ( 'NONE',  ( -0.0000000000000000000, -0.0000000000000000000, -1.000000000000000000 ) ) ;
#431 = AXIS2_PLACEMENT_3D ( 'NONE', #275, #136, #558 ) ;
#432 = PRODUCT_CONTEXT ( 'NONE', #14, 'mechanical' ) ;
#433 = AXIS2_PLACEMENT_3D ( 'NONE', #907, #177, #682 ) ;
#434 = ORIENTED_EDGE ( 'NONE', *, *, #160, .T. ) ;
#435 = DIRECTION ( 'NONE',  ( 1.000000000000000000, 0.0000000000000000000, 0.0000000000000000000 ) ) ;
#436 = ORIENTED_EDGE ( 'NONE', *, *, #877, .T. ) ;
#437 = DIRECTION ( 'NONE',  ( 1.000000000000000000, 0.0000000000000000000, 0.0000000000000000000 ) ) ;
#438 = ORIENTED_EDGE ( 'NONE', *, *, #68, .F. ) ;
#439 = ORIENTED_EDGE ( 'NONE', *, *, #68, .T. ) ;
#440 = DIRECTION ( 'NONE',  ( 1.000000000000000000, 0.0000000000000000000, 0.0000000000000000000 ) ) ;
#441 = EDGE_CURVE ( 'NONE', #328, #904, #290, .T. ) ;
#442 = CARTESIAN_POINT ( 'NONE',  ( 6.999999999999950262, 77.49999999999998579, 3.000000000000000000 ) ) ;
#443 = ORIENTED_EDGE ( 'NONE', *, *, #544, .F. ) ;
#444 = AXIS2_PLACEMENT_3D ( 'NONE', #44, #468, #614 ) ;
#445 = CYLINDRICAL_SURFACE ( 'NONE', #668, 3.000000000000002665 ) ;
#446 = PRESENTATION_LAYER_ASSIGNMENT (  '', '', ( #607 ) ) ;
#447 = DIRECTION ( 'NONE',  ( 1.000000000000000000, 0.0000000000000000000, 0.0000000000000000000 ) ) ;
#448 = ORIENTED_EDGE ( 'NONE', *, *, #885, .T. ) ;
#449 = LINE ( 'NONE', #258, #330 ) ;
#450 = AXIS2_PLACEMENT_3D ( 'NONE', #352, #360, #634 ) ;
#451 = ORIENTED_EDGE ( 'NONE', *, *, #669, .F. ) ;
#452 = DIRECTION ( 'NONE',  ( 1.000000000000000000, 0.0000000000000000000, 0.0000000000000000000 ) ) ;
#453 = ORIENTED_EDGE ( 'NONE', *, *, #380, .T. ) ;
#454 = EDGE_CURVE ( 'NONE', #163, #612, #312, .T. ) ;
#455 = CARTESIAN_POINT ( 'NONE',  ( 6.999999999999971578, 12.49999999999997691, 3.000000000000000000 ) ) ;
#456 = CARTESIAN_POINT ( 'NONE',  ( 3.000000000000000000, 87.00000000000001421, 3.000000000000000000 ) ) ;
#457 = ORIENTED_EDGE ( 'NONE', *, *, #9, .T. ) ;
#458 = AXIS2_PLACEMENT_3D ( 'NONE', #490, #208, #16 ) ;
#459 = CIRCLE ( 'NONE', #889, 1.650000000000002132 ) ;
#460 = EDGE_CURVE ( 'NONE', #725, #152, #351, .T. ) ;
#461 = ORIENTED_EDGE ( 'NONE', *, *, #460, .F. ) ;
#462 = EDGE_LOOP ( 'NONE', ( #451, #532, #457, #737 ) ) ;
#463 = AXIS2_PLACEMENT_3D ( 'NONE', #346, #850, #65 ) ;
#464 = ORIENTED_EDGE ( 'NONE', *, *, #799, .T. ) ;
#465 = DIRECTION ( 'NONE',  ( -1.000000000000000000, 0.0000000000000000000, 0.0000000000000000000 ) ) ;
#466 = ORIENTED_EDGE ( 'NONE', *, *, #109, .F. ) ;
#467 = CYLINDRICAL_SURFACE ( 'NONE', #94, 44.00000000000001421 ) ;
#468 = DIRECTION ( 'NONE',  ( -0.0000000000000000000, 0.0000000000000000000, 1.000000000000000000 ) ) ;
#469 = FACE_BOUND ( 'NONE', #471, .T. ) ;
#470 = DIRECTION ( 'NONE',  ( 1.387778780781453880E-14, -1.000000000000000000, 0.0000000000000000000 ) ) ;
#471 = EDGE_LOOP ( 'NONE', ( #772, #540 ) ) ;
#472 = EDGE_CURVE ( 'NONE', #816, #802, #517, .T. ) ;
#473 = ORIENTED_EDGE ( 'NONE', *, *, #441, .F. ) ;
#474 = DIRECTION ( 'NONE',  ( -1.000000000000000000, 0.0000000000000000000, 0.0000000000000000000 ) ) ;
#475 = ORIENTED_EDGE ( 'NONE', *, *, #472, .T. ) ;
#476 =( NAMED_UNIT ( * ) PLANE_ANGLE_UNIT ( ) SI_UNIT ( $, .RADIAN. ) );
#477 = CYLINDRICAL_SURFACE ( 'NONE', #233, 1.700000000000000178 ) ;
#478 = ORIENTED_EDGE ( 'NONE', *, *, #190, .T. ) ;
#479 = DIRECTION ( 'NONE',  ( -0.0000000000000000000, 0.0000000000000000000, 1.000000000000000000 ) ) ;
#480 = EDGE_CURVE ( 'NONE', #752, #595, #361, .T. ) ;
#481 = DIRECTION ( 'NONE',  ( -0.0000000000000000000, 0.0000000000000000000, 1.000000000000000000 ) ) ;
#482 = CARTESIAN_POINT ( 'NONE',  ( 6.700000000000002842, 85.00000000000000000, 0.0000000000000000000 ) ) ;
#483 = CYLINDRICAL_SURFACE ( 'NONE', #516, 1.650000000000012568 ) ;
#484 = FACE_BOUND ( 'NONE', #546, .T. ) ;
#485 = ORIENTED_EDGE ( 'NONE', *, *, #217, .F. ) ;
#486 = EDGE_LOOP ( 'NONE', ( #397, #478 ) ) ;
#487 = DIRECTION ( 'NONE',  ( -0.0000000000000000000, 0.0000000000000000000, 1.000000000000000000 ) ) ;
#488 = CARTESIAN_POINT ( 'NONE',  ( 98.99999999999994316, 12.49999999999997691, 3.000000000000000000 ) ) ;
#489 = ORIENTED_EDGE ( 'NONE', *, *, #198, .T. ) ;
#490 = CARTESIAN_POINT ( 'NONE',  ( 0.0000000000000000000, 0.0000000000000000000, 3.000000000000000000 ) ) ;
#491 = CARTESIAN_POINT ( 'NONE',  ( 126.0000000000006111, 1.748601263784640332E-12, 3.000000000000000000 ) ) ;
#492 = AXIS2_PLACEMENT_3D ( 'NONE', #543, #674, #692 ) ;
#493 = DIRECTION ( 'NONE',  ( -0.0000000000000000000, -0.0000000000000000000, -1.000000000000000000 ) ) ;
#494 = EDGE_CURVE ( 'NONE', #600, #787, #157, .T. ) ;
#495 = CARTESIAN_POINT ( 'NONE',  ( 55.99999999999995737, 44.99999999999997868, 0.0000000000000000000 ) ) ;
#496 = ORIENTED_EDGE ( 'NONE', *, *, #599, .F. ) ;
#497 = AXIS2_PLACEMENT_3D ( 'NONE', #72, #271, #262 ) ;
#498 = FACE_OUTER_BOUND ( 'NONE', #658, .T. ) ;
#499 = CARTESIAN_POINT ( 'NONE',  ( 49.99999999999995737, 44.99999999999997868, 3.000000000000000000 ) ) ;
#500 = VERTEX_POINT ( 'NONE', #597 ) ;
#501 = VECTOR ( 'NONE', #650, 1000.000000000000000 ) ;
#502 = EDGE_CURVE ( 'NONE', #347, #58, #533, .T. ) ;
#503 = ORIENTED_EDGE ( 'NONE', *, *, #84, .T. ) ;
#504 = VECTOR ( 'NONE', #272, 1000.000000000000000 ) ;
#505 = DIRECTION ( 'NONE',  ( 1.000000000000000000, 0.0000000000000000000, 0.0000000000000000000 ) ) ;
#506 = CARTESIAN_POINT ( 'NONE',  ( 5.000000000000000000, 85.00000000000000000, 0.0000000000000000000 ) ) ;
#507 = EDGE_CURVE ( 'NONE', #21, #523, #324, .T. ) ;
#508 = CARTESIAN_POINT ( 'NONE',  ( 6.999999999999950262, 77.49999999999998579, 3.000000000000000000 ) ) ;
#509 = VERTEX_POINT ( 'NONE', #835 ) ;
#510 = FACE_BOUND ( 'NONE', #672, .T. ) ;
#511 = DIRECTION ( 'NONE',  ( 1.000000000000000000, 0.0000000000000000000, 0.0000000000000000000 ) ) ;
#512 = VERTEX_POINT ( 'NONE', #830 ) ;
#513 = ORIENTED_EDGE ( 'NONE', *, *, #373, .F. ) ;
#514 = DIRECTION ( 'NONE',  ( -0.0000000000000000000, 0.0000000000000000000, 1.000000000000000000 ) ) ;
#515 = CYLINDRICAL_SURFACE ( 'NONE', #43, 1.700000000000002398 ) ;
#516 = AXIS2_PLACEMENT_3D ( 'NONE', #253, #619, #775 ) ;
#517 = CIRCLE ( 'NONE', #244, 3.000000000000002665 ) ;
#518 = CARTESIAN_POINT ( 'NONE',  ( 3.299999999999997602, 85.00000000000000000, 3.000000000000000000 ) ) ;
#519 = FACE_BOUND ( 'NONE', #897, .T. ) ;
#520 = CIRCLE ( 'NONE', #396, 1.650000000000012568 ) ;
#521 = CARTESIAN_POINT ( 'NONE',  ( 8.649999999999973710, 12.49999999999997691, 3.000000000000000000 ) ) ;
#522 = ORIENTED_EDGE ( 'NONE', *, *, #248, .T. ) ;
#523 = VERTEX_POINT ( 'NONE', #327 ) ;
#524 = CIRCLE ( 'NONE', #108, 1.649999999999995248 ) ;
#525 = ORIENTED_EDGE ( 'NONE', *, *, #933, .T. ) ;
#526 = VECTOR ( 'NONE', #175, 1000.000000000000000 ) ;
#527 = AXIS2_PLACEMENT_3D ( 'NONE', #427, #362, #505 ) ;
#528 = AXIS2_PLACEMENT_3D ( 'NONE', #98, #228, #167 ) ;
#529 = VERTEX_POINT ( 'NONE', #183 ) ;
#530 = DIRECTION ( 'NONE',  ( 1.000000000000000000, 0.0000000000000000000, 0.0000000000000000000 ) ) ;
#531 = ORIENTED_EDGE ( 'NONE', *, *, #109, .T. ) ;
#532 = ORIENTED_EDGE ( 'NONE', *, *, #373, .T. ) ;
#533 = CIRCLE ( 'NONE', #433, 1.700000000000002620 ) ;
#534 = PLANE ( 'NONE',  #774 ) ;
#535 = CARTESIAN_POINT ( 'NONE',  ( 3.000000000000000000, 90.00000000000001421, 3.000000000000000000 ) ) ;
#536 = AXIS2_PLACEMENT_3D ( 'NONE', #455, #745, #530 ) ;
#537 = ORIENTED_EDGE ( 'NONE', *, *, #169, .T. ) ;
#538 = FACE_OUTER_BOUND ( 'NONE', #307, .T. ) ;
#539 = AXIS2_PLACEMENT_3D ( 'NONE', #10, #794, #364 ) ;
#540 = ORIENTED_EDGE ( 'NONE', *, *, #652, .F. ) ;
#541 = AXIS2_PLACEMENT_3D ( 'NONE', #870, #727, #137 ) ;
#542 = LINE ( 'NONE', #878, #776 ) ;
#543 = CARTESIAN_POINT ( 'NONE',  ( 120.9999999999999858, 45.00000000000001421, 3.000000000000000000 ) ) ;
#544 = EDGE_CURVE ( 'NONE', #71, #58, #225, .T. ) ;
#545 = CARTESIAN_POINT ( 'NONE',  ( 5.000000000000000000, 5.000000000000000000, 3.000000000000000000 ) ) ;
#546 = EDGE_LOOP ( 'NONE', ( #240, #646 ) ) ;
#547 = ORIENTED_EDGE ( 'NONE', *, *, #441, .T. ) ;
#548 = CARTESIAN_POINT ( 'NONE',  ( 0.0000000000000000000, 87.00000000000001421, 3.000000000000000000 ) ) ;
#549 = VERTEX_POINT ( 'NONE', #242 ) ;
#550 = CARTESIAN_POINT ( 'NONE',  ( 6.999999999999971578, 12.49999999999997691, 3.000000000000000000 ) ) ;
#551 = ORIENTED_EDGE ( 'NONE', *, *, #662, .T. ) ;
#552 = VECTOR ( 'NONE', #791, 1000.000000000000000 ) ;
#553 = UNCERTAINTY_MEASURE_WITH_UNIT (LENGTH_MEASURE( 1.000000000000000082E-05 ), #218, 'distance_accuracy_value', 'NONE');
#554 = AXIS2_PLACEMENT_3D ( 'NONE', #508, #162, #437 ) ;
#555 = CARTESIAN_POINT ( 'NONE',  ( 81.99999999999998579, 90.00000000000001421, 3.000000000000000000 ) ) ;
#556 = EDGE_CURVE ( 'NONE', #298, #512, #921, .T. ) ;
#557 = DIRECTION ( 'NONE',  ( -0.0000000000000000000, 0.0000000000000000000, 1.000000000000000000 ) ) ;
#558 = DIRECTION ( 'NONE',  ( -1.000000000000000000, 0.0000000000000000000, 0.0000000000000000000 ) ) ;
#559 = EDGE_LOOP ( 'NONE', ( #735, #466, #252, #641 ) ) ;
#560 = CARTESIAN_POINT ( 'NONE',  ( 6.999999999999971578, 12.49999999999997691, 0.0000000000000000000 ) ) ;
#561 = LINE ( 'NONE', #350, #886 ) ;
#562 = CARTESIAN_POINT ( 'NONE',  ( -0.0000000000000000000, 90.00000000000001421, 0.0000000000000000000 ) ) ;
#563 = CARTESIAN_POINT ( 'NONE',  ( 120.9999999999999858, 45.00000000000001421, 3.000000000000000000 ) ) ;
#564 = CARTESIAN_POINT ( 'NONE',  ( 0.0000000000000000000, 90.00000000000001421, 3.000000000000000000 ) ) ;
#565 = FACE_OUTER_BOUND ( 'NONE', #736, .T. ) ;
#566 = LINE ( 'NONE', #758, #11 ) ;
#567 = DIRECTION ( 'NONE',  ( -0.0000000000000000000, -0.0000000000000000000, -1.000000000000000000 ) ) ;
#568 = CARTESIAN_POINT ( 'NONE',  ( 3.299999999999999378, 5.000000000000000000, 0.0000000000000000000 ) ) ;
#569 = DIRECTION ( 'NONE',  ( -0.0000000000000000000, -0.0000000000000000000, -1.000000000000000000 ) ) ;
#570 = PRODUCT_DEFINITION_FORMATION_WITH_SPECIFIED_SOURCE ( 'ANY', '', #762, .NOT_KNOWN. ) ;
#571 = ORIENTED_EDGE ( 'NONE', *, *, #84, .F. ) ;
#572 = CARTESIAN_POINT ( 'NONE',  ( 100.6499999999999631, 77.49999999999998579, 3.000000000000000000 ) ) ;
#573 =( GEOMETRIC_REPRESENTATION_CONTEXT ( 3 ) GLOBAL_UNCERTAINTY_ASSIGNED_CONTEXT ( ( #323 ) ) GLOBAL_UNIT_ASSIGNED_CONTEXT ( ( #18, #213, #159 ) ) REPRESENTATION_CONTEXT ( 'NONE', 'WORKASPACE' ) );
#574 = DIRECTION ( 'NONE',  ( 0.0000000000000000000, 0.0000000000000000000, 1.000000000000000000 ) ) ;
#575 = AXIS2_PLACEMENT_3D ( 'NONE', #911, #239, #465 ) ;
#576 = ORIENTED_EDGE ( 'NONE', *, *, #785, .F. ) ;
#577 = DIRECTION ( 'NONE',  ( -0.0000000000000000000, 0.0000000000000000000, 1.000000000000000000 ) ) ;
#578 = EDGE_CURVE ( 'NONE', #235, #347, #862, .T. ) ;
#579 =( NAMED_UNIT ( * ) PLANE_ANGLE_UNIT ( ) SI_UNIT ( $, .RADIAN. ) );
#580 = ORIENTED_EDGE ( 'NONE', *, *, #885, .F. ) ;
#581 = CIRCLE ( 'NONE', #291, 1.700000000000002620 ) ;
#582 = DIRECTION ( 'NONE',  ( 1.000000000000000000, 0.0000000000000000000, 0.0000000000000000000 ) ) ;
#583 = DIRECTION ( 'NONE',  ( -0.0000000000000000000, 0.0000000000000000000, 1.000000000000000000 ) ) ;
#584 = LINE ( 'NONE', #866, #704 ) ;
#585 = AXIS2_PLACEMENT_3D ( 'NONE', #250, #913, #395 ) ;
#586 = EDGE_LOOP ( 'NONE', ( #660, #884, #931, #299 ) ) ;
#587 = DIRECTION ( 'NONE',  ( -0.0000000000000000000, -0.0000000000000000000, -1.000000000000000000 ) ) ;
#588 = CIRCLE ( 'NONE', #539, 44.00000000000001421 ) ;
#589 = EDGE_CURVE ( 'NONE', #426, #120, #654, .T. ) ;
#590 = ADVANCED_FACE ( 'NONE', ( #832 ), #445, .F. ) ;
#591 = AXIS2_PLACEMENT_3D ( 'NONE', #133, #861, #793 ) ;
#592 = CARTESIAN_POINT ( 'NONE',  ( 6.700000000000002842, 85.00000000000000000, 3.000000000000000000 ) ) ;
#593 = AXIS2_PLACEMENT_3D ( 'NONE', #849, #339, #52 ) ;
#594 = ADVANCED_FACE ( 'NONE', ( #767 ), #909, .F. ) ;
#595 = VERTEX_POINT ( 'NONE', #611 ) ;
#596 = FACE_BOUND ( 'NONE', #826, .T. ) ;
#597 = CARTESIAN_POINT ( 'NONE',  ( 0.0000000000000000000, 87.00000000000001421, 3.000000000000000000 ) ) ;
#598 = VERTEX_POINT ( 'NONE', #833 ) ;
#599 = EDGE_CURVE ( 'NONE', #901, #598, #714, .T. ) ;
#600 = VERTEX_POINT ( 'NONE', #48 ) ;
#601 = DIRECTION ( 'NONE',  ( 0.0000000000000000000, 1.000000000000000000, 0.0000000000000000000 ) ) ;
#602 = ORIENTED_EDGE ( 'NONE', *, *, #754, .F. ) ;
#603 = CARTESIAN_POINT ( 'NONE',  ( 120.9999999999999858, 45.00000000000001421, 0.0000000000000000000 ) ) ;
#604 = AXIS2_PLACEMENT_3D ( 'NONE', #22, #810, #376 ) ;
#605 = DIRECTION ( 'NONE',  ( 1.000000000000000000, 0.0000000000000000000, 0.0000000000000000000 ) ) ;
#606 = VERTEX_POINT ( 'NONE', #535 ) ;
#607 = STYLED_ITEM ( 'NONE', ( #25 ), #74 ) ;
#608 = CIRCLE ( 'NONE', #527, 1.650000000000002132 ) ;
#609 = ADVANCED_FACE ( 'NONE', ( #679 ), #534, .F. ) ;
#610 = EDGE_LOOP ( 'NONE', ( #255, #629 ) ) ;
#611 = CARTESIAN_POINT ( 'NONE',  ( 8.649999999999973710, 12.49999999999997691, 0.0000000000000000000 ) ) ;
#612 = VERTEX_POINT ( 'NONE', #51 ) ;
#613 = ORIENTED_EDGE ( 'NONE', *, *, #669, .T. ) ;
#614 = DIRECTION ( 'NONE',  ( 1.000000000000000000, 0.0000000000000000000, 0.0000000000000000000 ) ) ;
#615 = ADVANCED_FACE ( 'NONE', ( #666 ), #467, .T. ) ;
#616 = CARTESIAN_POINT ( 'NONE',  ( 52.99999999999995737, 44.99999999999997868, 3.000000000000000000 ) ) ;
#617 = EDGE_CURVE ( 'NONE', #264, #606, #566, .T. ) ;
#618 = CIRCLE ( 'NONE', #591, 3.000000000000000000 ) ;
#619 = DIRECTION ( 'NONE',  ( -0.0000000000000000000, -0.0000000000000000000, -1.000000000000000000 ) ) ;
#620 = DIRECTION ( 'NONE',  ( 1.000000000000000000, 0.0000000000000000000, 0.0000000000000000000 ) ) ;
#621 = ORIENTED_EDGE ( 'NONE', *, *, #845, .T. ) ;
#622 = ORIENTED_EDGE ( 'NONE', *, *, #624, .T. ) ;
#623 = UNCERTAINTY_MEASURE_WITH_UNIT (LENGTH_MEASURE( 1.000000000000000082E-05 ), #402, 'distance_accuracy_value', 'NONE');
#624 = EDGE_CURVE ( 'NONE', #235, #71, #337, .T. ) ;
#625 = CARTESIAN_POINT ( 'NONE',  ( 97.34999999999993747, 77.49999999999998579, 3.000000000000000000 ) ) ;
#626 = CARTESIAN_POINT ( 'NONE',  ( 0.0000000000000000000, 0.0000000000000000000, 0.0000000000000000000 ) ) ;
#627 = CARTESIAN_POINT ( 'NONE',  ( 49.99999999999995737, 44.99999999999997868, 3.000000000000000000 ) ) ;
#628 = EDGE_CURVE ( 'NONE', #549, #500, #792, .T. ) ;
#629 = ORIENTED_EDGE ( 'NONE', *, *, #460, .T. ) ;
#630 = LINE ( 'NONE', #562, #398 ) ;
#631 = DIRECTION ( 'NONE',  ( 1.000000000000000000, 0.0000000000000000000, 0.0000000000000000000 ) ) ;
#632 = CIRCLE ( 'NONE', #929, 1.650000000000012568 ) ;
#633 = CARTESIAN_POINT ( 'NONE',  ( 49.99999999999995737, 44.99999999999997868, 0.0000000000000000000 ) ) ;
#634 = DIRECTION ( 'NONE',  ( -1.000000000000000000, 0.0000000000000000000, 0.0000000000000000000 ) ) ;
#635 = DIRECTION ( 'NONE',  ( 1.000000000000000000, 0.0000000000000000000, 0.0000000000000000000 ) ) ;
#636 = CARTESIAN_POINT ( 'NONE',  ( 3.299999999999999378, 5.000000000000000000, 3.000000000000000000 ) ) ;
#637 = ORIENTED_EDGE ( 'NONE', *, *, #365, .T. ) ;
#638 = EDGE_CURVE ( 'NONE', #89, #882, #110, .T. ) ;
#639 = ORIENTED_EDGE ( 'NONE', *, *, #280, .F. ) ;
#640 = APPLICATION_CONTEXT ( 'automotive_design' ) ;
#641 = ORIENTED_EDGE ( 'NONE', *, *, #200, .F. ) ;
#642 = CARTESIAN_POINT ( 'NONE',  ( 55.99999999999995737, 44.99999999999997868, 3.000000000000000000 ) ) ;
#643 = LINE ( 'NONE', #234, #31 ) ;
#644 = SURFACE_SIDE_STYLE ('',( #363 ) ) ;
#645 = DIRECTION ( 'NONE',  ( 0.0000000000000000000, 0.0000000000000000000, -1.000000000000000000 ) ) ;
#646 = ORIENTED_EDGE ( 'NONE', *, *, #589, .T. ) ;
#647 = CARTESIAN_POINT ( 'NONE',  ( 98.99999999999994316, 12.49999999999997691, 3.000000000000000000 ) ) ;
#648 = ORIENTED_EDGE ( 'NONE', *, *, #899, .F. ) ;
#649 = FACE_BOUND ( 'NONE', #202, .T. ) ;
#650 = DIRECTION ( 'NONE',  ( 1.000000000000000000, 0.0000000000000000000, 0.0000000000000000000 ) ) ;
#651 = ORIENTED_EDGE ( 'NONE', *, *, #190, .F. ) ;
#652 = EDGE_CURVE ( 'NONE', #512, #298, #249, .T. ) ;
#653 = EDGE_LOOP ( 'NONE', ( #30, #676, #801, #229 ) ) ;
#654 = CIRCLE ( 'NONE', #585, 1.650000000000012568 ) ;
#655 = CARTESIAN_POINT ( 'NONE',  ( 52.99999999999995737, 44.99999999999997868, 3.000000000000000000 ) ) ;
#656 = DIRECTION ( 'NONE',  ( -0.0000000000000000000, 0.0000000000000000000, 1.000000000000000000 ) ) ;
#657 = FACE_BOUND ( 'NONE', #166, .T. ) ;
#658 = EDGE_LOOP ( 'NONE', ( #389, #143, #86, #461 ) ) ;
#659 = LINE ( 'NONE', #204, #126 ) ;
#660 = ORIENTED_EDGE ( 'NONE', *, *, #785, .T. ) ;
#661 = ADVANCED_FACE ( 'NONE', ( #274 ), #146, .F. ) ;
#662 = EDGE_CURVE ( 'NONE', #847, #529, #632, .T. ) ;
#663 = CARTESIAN_POINT ( 'NONE',  ( 5.349999999999969447, 12.49999999999997691, 0.0000000000000000000 ) ) ;
#664 = CIRCLE ( 'NONE', #341, 3.000000000000002665 ) ;
#665 = VERTEX_POINT ( 'NONE', #260 ) ;
#666 = FACE_OUTER_BOUND ( 'NONE', #653, .T. ) ;
#667 = DIRECTION ( 'NONE',  ( -0.0000000000000000000, -0.0000000000000000000, -1.000000000000000000 ) ) ;
#668 = AXIS2_PLACEMENT_3D ( 'NONE', #616, #251, #331 ) ;
#669 = EDGE_CURVE ( 'NONE', #529, #163, #748, .T. ) ;
#670 = CARTESIAN_POINT ( 'NONE',  ( 100.6499999999999631, 77.49999999999998579, 0.0000000000000000000 ) ) ;
#671 = EDGE_CURVE ( 'NONE', #118, #712, #370, .T. ) ;
#672 = EDGE_LOOP ( 'NONE', ( #384, #621 ) ) ;
#673 = ORIENTED_EDGE ( 'NONE', *, *, #628, .T. ) ;
#674 = DIRECTION ( 'NONE',  ( -0.0000000000000000000, 0.0000000000000000000, 1.000000000000000000 ) ) ;
#675 = VERTEX_POINT ( 'NONE', #195 ) ;
#676 = ORIENTED_EDGE ( 'NONE', *, *, #321, .F. ) ;
#677 = ORIENTED_EDGE ( 'NONE', *, *, #734, .F. ) ;
#678 = LINE ( 'NONE', #69, #552 ) ;
#679 = FACE_OUTER_BOUND ( 'NONE', #156, .T. ) ;
#680 = ADVANCED_FACE ( 'NONE', ( #919 ), #46, .F. ) ;
#681 = EDGE_CURVE ( 'NONE', #417, #595, #459, .T. ) ;
#682 = DIRECTION ( 'NONE',  ( 1.000000000000000000, 0.0000000000000000000, 0.0000000000000000000 ) ) ;
#683 = DIRECTION ( 'NONE',  ( 0.0000000000000000000, 0.0000000000000000000, -1.000000000000000000 ) ) ;
#684 = AXIS2_PLACEMENT_3D ( 'NONE', #122, #770, #340 ) ;
#685 = ADVANCED_FACE ( 'NONE', ( #267 ), #743, .F. ) ;
#686 = DIRECTION ( 'NONE',  ( -0.0000000000000000000, -0.0000000000000000000, -1.000000000000000000 ) ) ;
#687 = ORIENTED_EDGE ( 'NONE', *, *, #741, .T. ) ;
#688 = FACE_OUTER_BOUND ( 'NONE', #586, .T. ) ;
#689 = DIRECTION ( 'NONE',  ( -0.0000000000000000000, -0.0000000000000000000, -1.000000000000000000 ) ) ;
#690 = AXIS2_PLACEMENT_3D ( 'NONE', #139, #144, #60 ) ;
#691 = VERTEX_POINT ( 'NONE', #135 ) ;
#692 = DIRECTION ( 'NONE',  ( 1.000000000000000000, 0.0000000000000000000, 0.0000000000000000000 ) ) ;
#693 = SURFACE_STYLE_USAGE ( .BOTH. , #332 ) ;
#694 = FACE_OUTER_BOUND ( 'NONE', #75, .T. ) ;
#695 = ORIENTED_EDGE ( 'NONE', *, *, #744, .F. ) ;
#696 = AXIS2_PLACEMENT_3D ( 'NONE', #287, #430, #142 ) ;
#697 = CARTESIAN_POINT ( 'NONE',  ( 120.9999999999999858, 45.00000000000001421, 0.0000000000000000000 ) ) ;
#698 = COLOUR_RGB ( '',0.7921568627450980005, 0.8196078431372548767, 0.9333333333333333481 ) ;
#699 = AXIS2_PLACEMENT_3D ( 'NONE', #545, #773, #6 ) ;
#700 = EDGE_CURVE ( 'NONE', #512, #725, #854, .T. ) ;
#701 = FACE_OUTER_BOUND ( 'NONE', #286, .T. ) ;
#702 = ORIENTED_EDGE ( 'NONE', *, *, #578, .F. ) ;
#703 = DIRECTION ( 'NONE',  ( -1.000000000000000000, 0.0000000000000000000, 0.0000000000000000000 ) ) ;
#704 = VECTOR ( 'NONE', #12, 1000.000000000000000 ) ;
#705 = EDGE_LOOP ( 'NONE', ( #232, #269, #525, #771 ) ) ;
#706 = ORIENTED_EDGE ( 'NONE', *, *, #210, .T. ) ;
#707 = DIRECTION ( 'NONE',  ( 0.0000000000000000000, -0.0000000000000000000, -1.000000000000000000 ) ) ;
#708 = DIRECTION ( 'NONE',  ( 1.000000000000000000, 0.0000000000000000000, 0.0000000000000000000 ) ) ;
#709 = ORIENTED_EDGE ( 'NONE', *, *, #79, .F. ) ;
#710 = VECTOR ( 'NONE', #493, 1000.000000000000000 ) ;
#711 = AXIS2_PLACEMENT_3D ( 'NONE', #383, #656, #452 ) ;
#712 = VERTEX_POINT ( 'NONE', #627 ) ;
#713 = CARTESIAN_POINT ( 'NONE',  ( 3.000000000000000000, 87.00000000000001421, 0.0000000000000000000 ) ) ;
#714 = LINE ( 'NONE', #320, #726 ) ;
#715 = CARTESIAN_POINT ( 'NONE',  ( 6.700000000000001066, 5.000000000000000000, 3.000000000000000000 ) ) ;
#716 =( GEOMETRIC_REPRESENTATION_CONTEXT ( 3 ) GLOBAL_UNCERTAINTY_ASSIGNED_CONTEXT ( ( #623 ) ) GLOBAL_UNIT_ASSIGNED_CONTEXT ( ( #402, #476, #918 ) ) REPRESENTATION_CONTEXT ( 'NONE', 'WORKASPACE' ) );
#717 = CARTESIAN_POINT ( 'NONE',  ( 100.6499999999999631, 12.49999999999997691, 3.000000000000000000 ) ) ;
#718 = PLANE ( 'NONE',  #305 ) ;
#719 = ORIENTED_EDGE ( 'NONE', *, *, #923, .F. ) ;
#720 = FACE_BOUND ( 'NONE', #761, .T. ) ;
#721 = DIRECTION ( 'NONE',  ( -0.0000000000000000000, -0.0000000000000000000, -1.000000000000000000 ) ) ;
#722 = ORIENTED_EDGE ( 'NONE', *, *, #902, .T. ) ;
#723 = DIRECTION ( 'NONE',  ( -1.000000000000000000, 0.0000000000000000000, 0.0000000000000000000 ) ) ;
#724 = CIRCLE ( 'NONE', #528, 1.650000000000012568 ) ;
#725 = VERTEX_POINT ( 'NONE', #121 ) ;
#726 = VECTOR ( 'NONE', #179, 1000.000000000000000 ) ;
#727 = DIRECTION ( 'NONE',  ( -0.0000000000000000000, -0.0000000000000000000, -1.000000000000000000 ) ) ;
#728 = FILL_AREA_STYLE ('',( #855 ) ) ;
#729 = DIRECTION ( 'NONE',  ( -1.000000000000000000, 0.0000000000000000000, 0.0000000000000000000 ) ) ;
#730 = AXIS2_PLACEMENT_3D ( 'NONE', #127, #487, #418 ) ;
#731 = EDGE_LOOP ( 'NONE', ( #443, #706, #99, #64 ) ) ;
#732 = AXIS2_PLACEMENT_3D ( 'NONE', #61, #481, #925 ) ;
#733 = DIRECTION ( 'NONE',  ( -1.000000000000000000, 0.0000000000000000000, 0.0000000000000000000 ) ) ;
#734 = EDGE_CURVE ( 'NONE', #787, #600, #308, .T. ) ;
#735 = ORIENTED_EDGE ( 'NONE', *, *, #34, .F. ) ;
#736 = EDGE_LOOP ( 'NONE', ( #571, #189, #439, #917 ) ) ;
#737 = ORIENTED_EDGE ( 'NONE', *, *, #454, .F. ) ;
#738 = CARTESIAN_POINT ( 'NONE',  ( 0.0000000000000000000, 0.0000000000000000000, 0.0000000000000000000 ) ) ;
#739 = APPLICATION_PROTOCOL_DEFINITION ( 'draft international standard', 'automotive_design', 1998, #14 ) ;
#740 = VECTOR ( 'NONE', #238, 1000.000000000000000 ) ;
#741 = EDGE_CURVE ( 'NONE', #429, #417, #449, .T. ) ;
#742 = CARTESIAN_POINT ( 'NONE',  ( 125.9999999999999716, 46.00000000000000000, 3.000000000000000000 ) ) ;
#743 = CYLINDRICAL_SURFACE ( 'NONE', #230, 1.650000000000002132 ) ;
#744 = EDGE_CURVE ( 'NONE', #665, #203, #375, .T. ) ;
#745 = DIRECTION ( 'NONE',  ( -0.0000000000000000000, 0.0000000000000000000, 1.000000000000000000 ) ) ;
#746 = ORIENTED_EDGE ( 'NONE', *, *, #387, .T. ) ;
#747 = ORIENTED_EDGE ( 'NONE', *, *, #933, .F. ) ;
#748 = LINE ( 'NONE', #717, #504 ) ;
#749 = CARTESIAN_POINT ( 'NONE',  ( 5.349999999999955236, 77.49999999999998579, 3.000000000000000000 ) ) ;
#750 = ADVANCED_FACE ( 'NONE', ( #393 ), #780, .T. ) ;
#751 = FACE_OUTER_BOUND ( 'NONE', #559, .T. ) ;
#752 = VERTEX_POINT ( 'NONE', #412 ) ;
#753 = ORIENTED_EDGE ( 'NONE', *, *, #818, .F. ) ;
#754 = EDGE_CURVE ( 'NONE', #124, #691, #915, .T. ) ;
#755 = DIRECTION ( 'NONE',  ( -0.0000000000000000000, -0.0000000000000000000, -1.000000000000000000 ) ) ;
#756 = ORIENTED_EDGE ( 'NONE', *, *, #50, .F. ) ;
#757 = CYLINDRICAL_SURFACE ( 'NONE', #149, 1.700000000000002398 ) ;
#758 = CARTESIAN_POINT ( 'NONE',  ( 3.000000000000000000, 90.00000000000001421, 3.000000000000000000 ) ) ;
#759 = AXIS2_PLACEMENT_3D ( 'NONE', #456, #683, #173 ) ;
#760 = FACE_BOUND ( 'NONE', #927, .T. ) ;
#761 = EDGE_LOOP ( 'NONE', ( #237, #105 ) ) ;
#762 = PRODUCT ( 'chassisDCmotor_lid', 'chassisDCmotor_lid', '', ( #432 ) ) ;
#763 = FACE_BOUND ( 'NONE', #895, .T. ) ;
#764 = ORIENTED_EDGE ( 'NONE', *, *, #507, .T. ) ;
#765 = ORIENTED_EDGE ( 'NONE', *, *, #248, .F. ) ;
#766 = LINE ( 'NONE', #572, #710 ) ;
#767 = FACE_OUTER_BOUND ( 'NONE', #174, .T. ) ;
#768 = CARTESIAN_POINT ( 'NONE',  ( 3.000000000000000000, 3.000000000000000000, 3.000000000000000000 ) ) ;
#769 = ADVANCED_FACE ( 'NONE', ( #538 ), #199, .F. ) ;
#770 = DIRECTION ( 'NONE',  ( -0.0000000000000000000, 0.0000000000000000000, 1.000000000000000000 ) ) ;
#771 = ORIENTED_EDGE ( 'NONE', *, *, #304, .T. ) ;
#772 = ORIENTED_EDGE ( 'NONE', *, *, #556, .F. ) ;
#773 = DIRECTION ( 'NONE',  ( -0.0000000000000000000, -0.0000000000000000000, -1.000000000000000000 ) ) ;
#774 = AXIS2_PLACEMENT_3D ( 'NONE', #47, #112, #470 ) ;
#775 = DIRECTION ( 'NONE',  ( -1.000000000000000000, 0.0000000000000000000, 0.0000000000000000000 ) ) ;
#776 = VECTOR ( 'NONE', #645, 1000.000000000000000 ) ;
#777 = AXIS2_PLACEMENT_3D ( 'NONE', #697, #125, #344 ) ;
#778 = CARTESIAN_POINT ( 'NONE',  ( 122.6999999999999744, 45.00000000000001421, 3.000000000000000000 ) ) ;
#779 = DIRECTION ( 'NONE',  ( 1.000000000000000000, 0.0000000000000000000, 0.0000000000000000000 ) ) ;
#780 = PLANE ( 'NONE',  #401 ) ;
#781 = DIRECTION ( 'NONE',  ( -0.0000000000000000000, -0.0000000000000000000, -1.000000000000000000 ) ) ;
#782 = VECTOR ( 'NONE', #853, 1000.000000000000000 ) ;
#783 = DIRECTION ( 'NONE',  ( -1.000000000000000000, 0.0000000000000000000, 0.0000000000000000000 ) ) ;
#784 = CARTESIAN_POINT ( 'NONE',  ( 5.000000000000000000, 5.000000000000000000, 3.000000000000000000 ) ) ;
#785 = EDGE_CURVE ( 'NONE', #429, #752, #608, .T. ) ;
#786 = CARTESIAN_POINT ( 'NONE',  ( 0.0000000000000000000, 3.000000000000000000, 3.000000000000000000 ) ) ;
#787 = VERTEX_POINT ( 'NONE', #78 ) ;
#788 = DIRECTION ( 'NONE',  ( 1.000000000000000000, 0.0000000000000000000, 0.0000000000000000000 ) ) ;
#789 = EDGE_LOOP ( 'NONE', ( #639, #114, #434, #464 ) ) ;
#790 = EDGE_CURVE ( 'NONE', #118, #816, #283, .T. ) ;
#791 = DIRECTION ( 'NONE',  ( -0.0000000000000000000, -0.0000000000000000000, -1.000000000000000000 ) ) ;
#792 = LINE ( 'NONE', #54, #526 ) ;
#793 = DIRECTION ( 'NONE',  ( 1.000000000000000000, 0.0000000000000000000, 0.0000000000000000000 ) ) ;
#794 = DIRECTION ( 'NONE',  ( 0.0000000000000000000, -0.0000000000000000000, -1.000000000000000000 ) ) ;
#795 = AXIS2_PLACEMENT_3D ( 'NONE', #563, #5, #783 ) ;
#796 = DIRECTION ( 'NONE',  ( 1.000000000000000000, 0.0000000000000000000, 0.0000000000000000000 ) ) ;
#797 = ORIENTED_EDGE ( 'NONE', *, *, #638, .T. ) ;
#798 = CARTESIAN_POINT ( 'NONE',  ( 81.99999999999998579, 90.00000000000001421, 0.0000000000000000000 ) ) ;
#799 = EDGE_CURVE ( 'NONE', #270, #598, #584, .T. ) ;
#800 = CARTESIAN_POINT ( 'NONE',  ( 119.2999999999999829, 45.00000000000001421, 3.000000000000000000 ) ) ;
#801 = ORIENTED_EDGE ( 'NONE', *, *, #507, .F. ) ;
#802 = VERTEX_POINT ( 'NONE', #633 ) ;
#803 = DIRECTION ( 'NONE',  ( 1.000000000000000000, 0.0000000000000000000, 0.0000000000000000000 ) ) ;
#804 = VECTOR ( 'NONE', #59, 1000.000000000000000 ) ;
#805 = AXIS2_PLACEMENT_3D ( 'NONE', #309, #667, #391 ) ;
#806 = DIRECTION ( 'NONE',  ( -0.0000000000000000000, -0.0000000000000000000, -1.000000000000000000 ) ) ;
#807 = AXIS2_PLACEMENT_3D ( 'NONE', #506, #872, #425 ) ;
#808 = ORIENTED_EDGE ( 'NONE', *, *, #877, .F. ) ;
#809 = ORIENTED_EDGE ( 'NONE', *, *, #169, .F. ) ;
#810 = DIRECTION ( 'NONE',  ( 0.0000000000000000000, -0.0000000000000000000, -1.000000000000000000 ) ) ;
#811 = CIRCLE ( 'NONE', #17, 3.000000000000000000 ) ;
#812 = FACE_OUTER_BOUND ( 'NONE', #869, .T. ) ;
#813 = PLANE ( 'NONE',  #385 ) ;
#814 = ADVANCED_FACE ( 'NONE', ( #903, #87, #484, #649, #510, #763, #77, #357, #827 ), #718, .F. ) ;
#815 = DIRECTION ( 'NONE',  ( -0.0000000000000000000, -0.0000000000000000000, -1.000000000000000000 ) ) ;
#816 = VERTEX_POINT ( 'NONE', #495 ) ;
#817 = FACE_OUTER_BOUND ( 'NONE', #192, .T. ) ;
#818 = EDGE_CURVE ( 'NONE', #245, #21, #241, .T. ) ;
#819 = ORIENTED_EDGE ( 'NONE', *, *, #902, .F. ) ;
#820 = STYLED_ITEM ( 'NONE', ( #924 ), #863 ) ;
#821 = DIRECTION ( 'NONE',  ( -0.0000000000000000000, 0.0000000000000000000, 1.000000000000000000 ) ) ;
#822 = AXIS2_PLACEMENT_3D ( 'NONE', #784, #3, #409 ) ;
#823 = MECHANICAL_DESIGN_GEOMETRIC_PRESENTATION_REPRESENTATION (  '', ( #607 ), #716 ) ;
#824 = ORIENTED_EDGE ( 'NONE', *, *, #905, .T. ) ;
#825 = DIRECTION ( 'NONE',  ( -0.0000000000000000000, -0.0000000000000000000, 1.000000000000000000 ) ) ;
#826 = EDGE_LOOP ( 'NONE', ( #930, #840 ) ) ;
#827 = FACE_OUTER_BOUND ( 'NONE', #261, .T. ) ;
#828 = ORIENTED_EDGE ( 'NONE', *, *, #891, .F. ) ;
#829 = ORIENTED_EDGE ( 'NONE', *, *, #380, .F. ) ;
#830 = CARTESIAN_POINT ( 'NONE',  ( 122.6999999999999744, 45.00000000000001421, 3.000000000000000000 ) ) ;
#831 = EDGE_LOOP ( 'NONE', ( #888, #513 ) ) ;
#832 = FACE_OUTER_BOUND ( 'NONE', #296, .T. ) ;
#833 = CARTESIAN_POINT ( 'NONE',  ( 125.9999999999999716, 46.00000000000000000, 0.0000000000000000000 ) ) ;
#834 = EDGE_CURVE ( 'NONE', #120, #426, #317, .T. ) ;
#835 = CARTESIAN_POINT ( 'NONE',  ( 3.000000000000000000, 0.0000000000000000000, 0.0000000000000000000 ) ) ;
#836 = ADVANCED_FACE ( 'NONE', ( #688 ), #115, .F. ) ;
#837 = DIRECTION ( 'NONE',  ( -0.0000000000000000000, 0.0000000000000000000, 1.000000000000000000 ) ) ;
#838 = PRODUCT_DEFINITION ( 'UNKNOWN', '', #570, #35 ) ;
#839 = LINE ( 'NONE', #284, #113 ) ;
#840 = ORIENTED_EDGE ( 'NONE', *, *, #210, .F. ) ;
#841 = AXIS2_PLACEMENT_3D ( 'NONE', #932, #707, #631 ) ;
#842 = ORIENTED_EDGE ( 'NONE', *, *, #34, .T. ) ;
#843 = ADVANCED_FACE ( 'NONE', ( #498 ), #141, .F. ) ;
#844 = VECTOR ( 'NONE', #806, 1000.000000000000000 ) ;
#845 = EDGE_CURVE ( 'NONE', #595, #417, #871, .T. ) ;
#846 = DIRECTION ( 'NONE',  ( -0.0000000000000000000, -0.0000000000000000000, -1.000000000000000000 ) ) ;
#847 = VERTEX_POINT ( 'NONE', #354 ) ;
#848 = DIRECTION ( 'NONE',  ( -0.0000000000000000000, 0.0000000000000000000, 1.000000000000000000 ) ) ;
#849 = CARTESIAN_POINT ( 'NONE',  ( 3.000000000000000000, 3.000000000000000000, 3.000000000000000000 ) ) ;
#850 = DIRECTION ( 'NONE',  ( -0.0000000000000000000, 0.0000000000000000000, 1.000000000000000000 ) ) ;
#851 = DIRECTION ( 'NONE',  ( -0.0000000000000000000, -0.0000000000000000000, -1.000000000000000000 ) ) ;
#852 = CIRCLE ( 'NONE', #777, 1.699999999999993072 ) ;
#853 = DIRECTION ( 'NONE',  ( -0.0000000000000000000, -0.0000000000000000000, -1.000000000000000000 ) ) ;
#854 = LINE ( 'NONE', #778, #893 ) ;
#855 = FILL_AREA_STYLE_COLOUR ( '', #698 ) ;
#856 = EDGE_LOOP ( 'NONE', ( #214, #503, #129, #438 ) ) ;
#857 = CARTESIAN_POINT ( 'NONE',  ( 120.9999999999999858, 45.00000000000001421, 3.000000000000000000 ) ) ;
#858 = AXIS2_PLACEMENT_3D ( 'NONE', #104, #381, #231 ) ;
#859 = CARTESIAN_POINT ( 'NONE',  ( 97.34999999999993747, 77.49999999999998579, 0.0000000000000000000 ) ) ;
#860 = VERTEX_POINT ( 'NONE', #555 ) ;
#861 = DIRECTION ( 'NONE',  ( -0.0000000000000000000, 0.0000000000000000000, 1.000000000000000000 ) ) ;
#862 = LINE ( 'NONE', #392, #134 ) ;
#863 = ADVANCED_BREP_SHAPE_REPRESENTATION ( 'chassisDCmotor_lid', ( #74, #259 ), #573 ) ;
#864 = DIRECTION ( 'NONE',  ( 1.000000000000000000, 0.0000000000000000000, 0.0000000000000000000 ) ) ;
#865 = CARTESIAN_POINT ( 'NONE',  ( 126.0000000000000000, 44.00000000000001421, 0.0000000000000000000 ) ) ;
#866 = CARTESIAN_POINT ( 'NONE',  ( 125.9999999999999716, 46.00000000000000000, 3.000000000000000000 ) ) ;
#867 = CARTESIAN_POINT ( 'NONE',  ( 5.000000000000000000, 85.00000000000000000, 3.000000000000000000 ) ) ;
#868 = DIRECTION ( 'NONE',  ( -0.0000000000000000000, -0.0000000000000000000, -1.000000000000000000 ) ) ;
#869 = EDGE_LOOP ( 'NONE', ( #753, #892, #314, #485 ) ) ;
#870 = CARTESIAN_POINT ( 'NONE',  ( 6.999999999999950262, 77.49999999999998579, 3.000000000000000000 ) ) ;
#871 = CIRCLE ( 'NONE', #463, 1.650000000000002132 ) ;
#872 = DIRECTION ( 'NONE',  ( -0.0000000000000000000, 0.0000000000000000000, 1.000000000000000000 ) ) ;
#873 = ORIENTED_EDGE ( 'NONE', *, *, #50, .T. ) ;
#874 = SURFACE_STYLE_USAGE ( .BOTH. , #644 ) ;
#875 = CARTESIAN_POINT ( 'NONE',  ( 5.000000000000000000, 5.000000000000000000, 0.0000000000000000000 ) ) ;
#876 = LINE ( 'NONE', #28, #844 ) ;
#877 = EDGE_CURVE ( 'NONE', #606, #500, #618, .T. ) ;
#878 = CARTESIAN_POINT ( 'NONE',  ( 3.000000000000000000, 0.0000000000000000000, 0.0000000000000000000 ) ) ;
#879 = CYLINDRICAL_SURFACE ( 'NONE', #49, 1.650000000000012568 ) ;
#880 = PRESENTATION_LAYER_ASSIGNMENT (  '', '', ( #820 ) ) ;
#881 = AXIS2_PLACEMENT_3D ( 'NONE', #857, #557, #416 ) ;
#882 = VERTEX_POINT ( 'NONE', #715 ) ;
#883 = CARTESIAN_POINT ( 'NONE',  ( 126.0000000000000000, 44.00000000000001421, 3.000000000000000000 ) ) ;
#884 = ORIENTED_EDGE ( 'NONE', *, *, #480, .T. ) ;
#885 = EDGE_CURVE ( 'NONE', #523, #270, #428, .T. ) ;
#886 = VECTOR ( 'NONE', #358, 1000.000000000000000 ) ;
#887 = ORIENTED_EDGE ( 'NONE', *, *, #923, .T. ) ;
#888 = ORIENTED_EDGE ( 'NONE', *, *, #662, .F. ) ;
#889 = AXIS2_PLACEMENT_3D ( 'NONE', #560, #479, #620 ) ;
#890 = CARTESIAN_POINT ( 'NONE',  ( 5.349999999999955236, 77.49999999999998579, 3.000000000000000000 ) ) ;
#891 = EDGE_CURVE ( 'NONE', #298, #152, #561, .T. ) ;
#892 = ORIENTED_EDGE ( 'NONE', *, *, #200, .T. ) ;
#893 = VECTOR ( 'NONE', #846, 1000.000000000000000 ) ;
#894 = DIRECTION ( 'NONE',  ( -0.0000000000000000000, 0.0000000000000000000, 1.000000000000000000 ) ) ;
#895 = EDGE_LOOP ( 'NONE', ( #154, #295 ) ) ;
#896 = LINE ( 'NONE', #738, #501 ) ;
#897 = EDGE_LOOP ( 'NONE', ( #223, #765 ) ) ;
#898 = CARTESIAN_POINT ( 'NONE',  ( 5.349999999999969447, 12.49999999999997691, 3.000000000000000000 ) ) ;
#899 = EDGE_CURVE ( 'NONE', #675, #901, #153, .T. ) ;
#900 = ORIENTED_EDGE ( 'NONE', *, *, #638, .F. ) ;
#901 = VERTEX_POINT ( 'NONE', #865 ) ;
#902 = EDGE_CURVE ( 'NONE', #882, #691, #659, .T. ) ;
#903 = FACE_BOUND ( 'NONE', #273, .T. ) ;
#904 = VERTEX_POINT ( 'NONE', #278 ) ;
#905 = EDGE_CURVE ( 'NONE', #509, #665, #106, .T. ) ;
#906 = ORIENTED_EDGE ( 'NONE', *, *, #544, .T. ) ;
#907 = CARTESIAN_POINT ( 'NONE',  ( 5.000000000000000000, 85.00000000000000000, 0.0000000000000000000 ) ) ;
#908 = ORIENTED_EDGE ( 'NONE', *, *, #62, .F. ) ;
#909 = CYLINDRICAL_SURFACE ( 'NONE', #575, 1.699999999999993072 ) ;
#910 = AXIS2_PLACEMENT_3D ( 'NONE', #603, #821, #42 ) ;
#911 = CARTESIAN_POINT ( 'NONE',  ( 120.9999999999999858, 45.00000000000001421, 3.000000000000000000 ) ) ;
#912 = ADVANCED_FACE ( 'NONE', ( #817 ), #197, .F. ) ;
#913 = DIRECTION ( 'NONE',  ( -0.0000000000000000000, 0.0000000000000000000, 1.000000000000000000 ) ) ;
#914 = ORIENTED_EDGE ( 'NONE', *, *, #407, .T. ) ;
#915 = CIRCLE ( 'NONE', #382, 1.700000000000000178 ) ;
#916 = ADVANCED_FACE ( 'NONE', ( #720, #519, #297, #263, #760, #596, #469, #657, #306 ), #411, .T. ) ;
#917 = ORIENTED_EDGE ( 'NONE', *, *, #589, .F. ) ;
#918 =( NAMED_UNIT ( * ) SI_UNIT ( $, .STERADIAN. ) SOLID_ANGLE_UNIT ( ) );
#919 = FACE_OUTER_BOUND ( 'NONE', #378, .T. ) ;
#920 = ORIENTED_EDGE ( 'NONE', *, *, #599, .T. ) ;
#921 = CIRCLE ( 'NONE', #492, 1.699999999999993072 ) ;
#922 = DIRECTION ( 'NONE',  ( -0.0000000000000000000, -0.0000000000000000000, -1.000000000000000000 ) ) ;
#923 = EDGE_CURVE ( 'NONE', #712, #802, #279, .T. ) ;
#924 = PRESENTATION_STYLE_ASSIGNMENT (( #874 ) ) ;
#925 = DIRECTION ( 'NONE',  ( 1.000000000000000000, 0.0000000000000000000, 0.0000000000000000000 ) ) ;
#926 = PRODUCT_DEFINITION_SHAPE ( 'NONE', 'NONE',  #838 ) ;
#927 = EDGE_LOOP ( 'NONE', ( #576, #37 ) ) ;
#928 = DIRECTION ( 'NONE',  ( -1.000000000000000000, 0.0000000000000000000, 0.0000000000000000000 ) ) ;
#929 = AXIS2_PLACEMENT_3D ( 'NONE', #488, #66, #57 ) ;
#930 = ORIENTED_EDGE ( 'NONE', *, *, #624, .F. ) ;
#931 = ORIENTED_EDGE ( 'NONE', *, *, #681, .F. ) ;
#932 = CARTESIAN_POINT ( 'NONE',  ( 3.000000000000000000, 3.000000000000000000, 0.0000000000000000000 ) ) ;
#933 = EDGE_CURVE ( 'NONE', #606, #860, #839, .T. ) ;
#934 = ORIENTED_EDGE ( 'NONE', *, *, #818, .T. ) ;
ENDSEC;
END-ISO-10303-21;
